2.31.186.212
2.56.98.121
2.56.98.134
2.56.241.243
2.58.52.163
2.58.56.86
2.58.56.101
2.83.38.168
2.139.28.207
2.200.105.147
2.206.96.71
2.206.247.221
3.9.8.122
3.20.179.249
3.21.228.16
3.26.51.68
3.91.76.227
3.121.167.65
3.125.53.139
3.129.234.3
3.139.85.49
3.142.73.219
3.143.217.21
3.145.139.153
3.225.115.238
5.2.54.152
5.2.67.226
5.2.70.140
5.2.70.223
5.2.72.101
5.2.72.110
5.2.72.226
5.2.76.22
5.2.76.221
5.2.77.22
5.2.78.69
5.2.78.126
5.2.79.179
5.2.79.190
5.9.12.251
5.9.37.162
5.9.56.12
5.9.80.217
5.9.99.181
5.9.120.18
5.9.121.207
5.9.122.185
5.9.129.218
5.9.137.167
5.9.156.17
5.9.158.123
5.13.201.94
5.34.183.29
5.39.69.166
5.39.86.203
5.39.90.190
5.39.185.164
5.44.101.190
5.45.86.117
5.45.96.177
5.45.98.12
5.45.98.97
5.45.98.153
5.45.98.162
5.45.98.188
5.45.99.26
5.45.99.105
5.45.102.68
5.45.102.93
5.45.102.119
5.45.102.155
5.45.103.136
5.45.104.56
5.45.104.89
5.45.104.112
5.45.104.141
5.45.104.176
5.45.106.197
5.45.106.207
5.45.107.47
5.45.107.107
5.45.109.7
5.45.111.149
5.57.243.47
5.61.59.7
5.63.39.184
5.63.50.199
5.79.109.48
5.95.167.115
5.100.255.254
5.101.51.22
5.103.76.135
5.132.7.231
5.135.156.12
5.135.158.162
5.135.162.49
5.135.163.187
5.135.177.107
5.135.182.131
5.135.199.1
5.146.68.185
5.146.129.224
5.146.177.130
5.147.107.16
5.147.146.222
5.147.248.158
5.150.196.99
5.150.239.61
5.154.174.241
5.161.47.104
5.161.61.61
5.161.72.143
5.161.79.151
5.161.84.59
5.161.97.229
5.161.104.225
5.161.148.162
5.161.156.148
5.180.107.87
5.180.183.250
5.181.48.188
5.181.51.51
5.181.51.52
5.181.80.169
5.181.80.184
5.181.134.99
5.181.158.12
5.182.36.109
5.182.39.111
5.182.211.119
5.183.170.174
5.188.206.62
5.189.134.99
5.189.155.39
5.189.164.50
5.189.169.190
5.189.181.61
5.189.182.163
5.189.223.11
5.196.70.226
5.196.73.184
5.196.95.34
5.199.138.88
5.199.162.73
5.199.162.114
5.199.162.155
5.200.21.144
5.252.23.42
5.252.23.106
5.252.178.224
5.253.176.99
5.253.204.149
5.254.118.150
5.254.118.189
5.254.118.191
5.254.118.192
5.255.96.29
5.255.96.167
5.255.96.183
5.255.96.218
5.255.96.245
5.255.97.133
5.255.97.134
5.255.97.170
5.255.97.211
5.255.97.221
5.255.97.233
5.255.98.7
5.255.98.23
5.255.98.81
5.255.98.121
5.255.98.151
5.255.98.156
5.255.98.198
5.255.98.231
5.255.99.5
5.255.99.16
5.255.99.74
5.255.99.124
5.255.99.147
5.255.99.205
5.255.100.26
5.255.100.149
5.255.100.181
5.255.100.219
5.255.100.245
5.255.101.10
5.255.101.119
5.255.101.131
5.255.102.43
5.255.102.57
5.255.102.182
5.255.103.188
5.255.103.190
5.255.103.235
5.255.104.14
5.255.104.207
5.255.104.239
8.9.3.67
8.42.76.68
12.208.119.235
13.48.17.31
13.58.202.28
13.124.18.130
13.211.32.165
13.213.11.29
14.9.101.224
14.51.6.220
14.200.177.98
15.188.107.107
15.204.141.10
15.204.141.14
15.204.141.95
15.204.172.16
15.204.174.85
15.235.29.232
15.235.29.233
15.235.29.234
15.235.29.235
15.235.29.236
15.235.130.1
15.235.141.254
18.18.82.18
18.18.82.19
18.18.82.30
18.188.59.68
18.188.203.202
18.210.83.169
18.216.5.37
18.217.45.53
18.217.231.202
18.220.20.115
20.48.104.6
20.110.177.43
20.206.84.211
23.16.206.57
23.81.44.113
23.81.66.90
23.82.136.14
23.82.136.23
23.82.136.232
23.82.137.99
23.83.91.155
23.88.44.26
23.88.75.73
23.88.75.121
23.88.131.93
23.94.134.169
23.94.220.103
23.94.220.202
23.105.163.117
23.105.171.37
23.105.171.147
23.106.120.42
23.108.51.104
23.108.55.71
23.111.143.202
23.111.179.98
23.111.189.202
23.119.167.219
23.126.9.217
23.128.248.10
23.128.248.11
23.128.248.12
23.128.248.13
23.128.248.14
23.128.248.15
23.128.248.16
23.128.248.17
23.128.248.18
23.128.248.19
23.128.248.20
23.128.248.21
23.128.248.22
23.128.248.23
23.128.248.24
23.128.248.25
23.128.248.26
23.128.248.27
23.128.248.28
23.128.248.29
23.128.248.30
23.128.248.31
23.128.248.32
23.128.248.33
23.128.248.34
23.128.248.35
23.128.248.36
23.128.248.37
23.128.248.38
23.128.248.39
23.128.248.40
23.128.248.41
23.128.248.42
23.128.248.43
23.128.248.44
23.128.248.45
23.128.248.46
23.128.248.47
23.128.248.48
23.128.248.49
23.128.248.50
23.128.248.51
23.128.248.52
23.128.248.53
23.128.248.54
23.128.248.55
23.128.248.56
23.128.248.57
23.128.248.58
23.128.248.59
23.128.248.60
23.128.248.61
23.128.248.62
23.128.248.63
23.128.248.64
23.128.248.65
23.128.248.66
23.128.248.67
23.128.248.68
23.128.248.69
23.128.248.70
23.128.248.71
23.128.248.72
23.128.248.73
23.128.248.74
23.128.248.75
23.128.248.76
23.128.248.77
23.128.248.78
23.128.248.79
23.128.248.80
23.128.248.81
23.128.248.82
23.128.248.83
23.128.248.84
23.128.248.85
23.128.248.86
23.128.248.87
23.128.248.88
23.128.248.89
23.128.248.90
23.128.248.91
23.128.248.92
23.128.248.93
23.128.248.94
23.128.248.95
23.128.248.96
23.128.248.97
23.128.248.98
23.128.248.99
23.128.248.100
23.128.248.101
23.128.248.102
23.128.248.103
23.128.248.104
23.128.248.105
23.128.248.106
23.128.248.107
23.128.248.108
23.128.248.109
23.128.248.200
23.128.248.201
23.128.248.202
23.128.248.203
23.128.248.204
23.128.248.205
23.128.248.206
23.128.248.207
23.128.248.208
23.128.248.209
23.128.248.210
23.128.248.211
23.128.248.212
23.128.248.213
23.128.248.214
23.128.248.215
23.128.248.216
23.128.248.217
23.128.248.218
23.128.248.219
23.128.248.220
23.128.248.221
23.128.248.222
23.128.248.223
23.128.248.224
23.128.248.225
23.128.248.226
23.128.248.227
23.128.248.228
23.128.248.229
23.128.248.230
23.129.32.123
23.129.64.250
23.133.8.3
23.134.136.5
23.137.249.25
23.137.249.28
23.137.249.143
23.137.249.146
23.137.249.150
23.137.249.227
23.137.249.240
23.154.177.2
23.154.177.3
23.154.177.4
23.154.177.5
23.154.177.6
23.154.177.7
23.154.177.8
23.154.177.9
23.154.177.10
23.154.177.11
23.154.177.12
23.154.177.13
23.160.192.240
23.160.193.3
23.171.176.147
23.229.2.178
23.234.251.199
23.238.170.198
23.238.170.206
23.238.170.234
23.239.22.248
23.239.113.101
23.250.14.98
23.250.14.106
23.250.14.226
23.253.203.194
24.4.166.197
24.18.194.124
24.28.101.218
24.48.197.52
24.53.51.144
24.61.235.80
24.96.60.27
24.99.81.29
24.112.149.188
24.116.64.60
24.124.18.33
24.134.118.245
24.134.234.17
24.135.84.42
24.150.201.7
24.152.39.95
24.180.150.87
24.190.192.15
24.203.134.20
24.212.140.254
24.230.61.158
24.246.29.240
27.32.71.121
27.133.132.212
27.133.153.192
27.255.75.198
27.255.77.69
31.3.135.250
31.6.70.71
31.6.70.77
31.7.175.1
31.7.188.58
31.13.195.248
31.14.41.164
31.16.217.67
31.18.4.20
31.18.228.87
31.19.10.126
31.19.81.29
31.24.148.37
31.31.77.176
31.42.177.60
31.42.186.165
31.43.153.208
31.52.239.96
31.131.2.17
31.131.2.19
31.133.0.37
31.133.0.123
31.133.0.141
31.133.0.150
31.133.0.182
31.133.1.6
31.165.21.216
31.165.200.3
31.171.152.122
31.171.154.166
31.171.154.173
31.171.154.186
31.171.155.114
31.171.155.122
31.201.16.30
31.207.89.76
31.208.128.22
31.209.59.163
31.214.144.175
31.220.7.187
35.136.7.43
35.178.146.90
35.182.71.209
37.1.220.179
37.9.231.195
37.11.134.31
37.16.105.85
37.24.0.185
37.24.145.61
37.34.57.236
37.35.107.238
37.46.80.71
37.48.120.47
37.48.120.196
37.49.5.84
37.59.76.252
37.59.76.253
37.59.76.254
37.59.76.255
37.59.151.233
37.75.112.52
37.75.166.2
37.97.185.116
37.114.37.170
37.114.40.104
37.114.62.88
37.114.62.158
37.117.4.18
37.120.137.217
37.120.162.222
37.120.165.175
37.120.165.225
37.120.165.232
37.120.167.149
37.120.167.200
37.120.168.74
37.120.171.230
37.120.174.249
37.120.176.124
37.120.178.124
37.120.178.238
37.120.179.169
37.120.184.36
37.120.185.151
37.120.185.177
37.120.186.122
37.120.186.208
37.120.187.104
37.120.187.142
37.120.187.161
37.120.190.6
37.120.190.134
37.120.191.218
37.120.244.74
37.122.208.220
37.123.143.161
37.123.163.58
37.123.173.71
37.136.168.178
37.138.39.109
37.138.229.202
37.143.118.9
37.153.1.10
37.153.16.170
37.157.197.143
37.187.2.76
37.187.17.67
37.187.18.212
37.187.20.164
37.187.21.49
37.187.23.232
37.187.96.84
37.187.96.183
37.187.98.185
37.187.102.108
37.187.103.54
37.187.104.111
37.187.122.8
37.187.122.101
37.187.138.132
37.187.179.73
37.187.205.114
37.191.194.248
37.191.195.63
37.191.195.67
37.191.199.95
37.191.201.85
37.191.201.239
37.191.206.197
37.200.99.251
37.201.108.51
37.201.143.96
37.205.8.191
37.205.9.131
37.218.242.26
37.218.242.84
37.220.0.13
37.220.36.240
37.221.65.168
37.221.65.169
37.221.65.250
37.221.66.245
37.221.66.246
37.221.66.247
37.221.66.248
37.221.66.249
37.221.66.250
37.221.66.251
37.221.66.252
37.221.66.253
37.221.66.254
37.221.67.50
37.221.67.51
37.221.67.52
37.221.67.54
37.221.67.55
37.221.67.56
37.221.192.121
37.221.193.44
37.221.195.19
37.221.195.23
37.221.195.103
37.221.196.71
37.221.198.3
37.221.209.148
37.228.129.24
37.228.129.29
37.228.129.62
37.228.129.109
37.228.129.133
37.228.129.163
37.235.48.247
37.235.49.138
37.235.55.83
37.247.55.40
37.252.185.87
37.252.187.111
37.252.187.129
37.252.188.101
37.252.189.17
37.252.190.176
37.252.191.41
37.252.191.190
37.252.254.33
37.252.255.135
38.22.104.177
38.68.135.5
38.97.116.242
38.97.116.243
38.100.216.142
38.103.195.2
38.132.178.154
38.242.210.190
38.242.238.65
39.109.151.40
40.68.148.217
40.131.187.116
41.216.189.100
42.191.74.137
43.131.94.164
43.251.159.144
43.252.37.14
44.242.33.87
45.8.144.90
45.9.62.203
45.9.149.155
45.9.150.49
45.9.150.81
45.9.168.191
45.10.24.90
45.11.57.48
45.12.138.83
45.13.104.185
45.14.233.149
45.14.233.159
45.14.233.160
45.15.16.171
45.15.16.216
45.15.23.77
45.19.142.217
45.32.127.201
45.32.172.24
45.32.244.130
45.32.254.111
45.33.13.63
45.33.27.210
45.33.47.218
45.33.55.238
45.33.99.55
45.33.114.120
45.33.124.98
45.33.198.201
45.35.33.198
45.35.33.218
45.35.33.246
45.35.34.46
45.35.85.122
45.35.130.46
45.35.194.162
45.41.204.203
45.41.241.65
45.45.216.154
45.45.225.1
45.55.47.232
45.55.141.66
45.55.240.225
45.56.90.176
45.58.152.43
45.58.152.45
45.58.152.46
45.58.154.218
45.58.154.219
45.58.154.220
45.58.154.221
45.58.154.222
45.58.156.74
45.58.156.75
45.58.156.76
45.58.156.77
45.58.156.78
45.61.137.78
45.61.184.244
45.61.185.49
45.61.185.53
45.61.186.203
45.61.187.139
45.61.187.213
45.61.188.144
45.61.188.196
45.61.188.200
45.62.224.11
45.62.224.17
45.62.224.21
45.62.224.33
45.62.224.42
45.62.224.47
45.62.232.181
45.62.246.216
45.63.126.247
45.66.33.45
45.67.219.13
45.73.2.211
45.76.24.29
45.76.86.86
45.76.123.175
45.76.173.137
45.76.218.97
45.77.70.45
45.77.151.38
45.77.160.51
45.77.224.179
45.79.14.141
45.79.70.219
45.79.76.89
45.79.76.174
45.79.92.94
45.79.95.244
45.79.108.130
45.79.138.8
45.79.144.222
45.79.158.49
45.79.159.52
45.79.177.21
45.79.177.190
45.79.181.228
45.79.188.111
45.79.197.155
45.79.218.205
45.79.222.13
45.80.170.246
45.80.171.18
45.80.171.95
45.80.171.211
45.83.5.245
45.83.233.16
45.83.234.114
45.86.86.146
45.86.86.158
45.86.209.201
45.86.228.153
45.87.42.160
45.88.109.107
45.88.200.95
45.89.54.11
45.89.124.247
45.90.57.34
45.90.58.97
45.90.135.141
45.90.161.141
45.91.77.77
45.91.101.227
45.92.238.246
45.94.107.178
45.95.11.12
45.95.169.255
45.95.235.197
45.114.130.4
45.116.189.96
45.124.53.132
45.125.65.45
45.125.65.112
45.125.65.118
45.125.166.58
45.128.133.206
45.128.133.242
45.129.181.126
45.129.182.225
45.130.229.91
45.131.138.227
45.132.74.182
45.132.158.199
45.132.245.124
45.132.246.38
45.134.225.36
45.135.167.11
45.136.28.24
45.136.29.221
45.136.30.7
45.136.31.178
45.136.199.174
45.137.68.48
45.137.100.160
45.138.16.118
45.138.228.251
45.138.230.131
45.139.122.241
45.140.180.71
45.141.0.44
45.141.153.214
45.141.156.107
45.141.157.50
45.141.215.92
45.142.100.30
45.142.176.32
45.142.176.96
45.142.176.108
45.142.179.81
45.142.211.177
45.142.211.201
45.142.213.105
45.142.232.203
45.147.98.51
45.147.98.253
45.148.136.111
45.150.108.105
45.150.108.237
45.151.125.191
45.151.167.10
45.151.167.11
45.151.167.12
45.151.167.13
45.154.28.70
45.154.98.173
45.154.98.176
45.154.98.220
45.154.98.225
45.154.255.138
45.154.255.139
45.154.255.140
45.156.24.76
45.156.25.24
45.173.130.81
45.180.21.251
45.238.67.67
45.249.90.26
46.4.32.184
46.4.34.242
46.4.36.182
46.4.55.177
46.4.57.75
46.4.66.178
46.4.66.188
46.4.78.148
46.4.101.213
46.4.103.29
46.4.115.73
46.4.176.48
46.4.183.104
46.4.233.104
46.5.222.109
46.9.42.110
46.17.63.214
46.20.35.112
46.20.35.116
46.22.212.230
46.23.72.81
46.23.90.220
46.26.93.119
46.28.107.15
46.28.107.138
46.28.109.231
46.28.110.244
46.29.163.225
46.29.250.27
46.30.188.218
46.38.232.203
46.38.236.202
46.38.236.250
46.38.237.221
46.38.240.66
46.38.242.125
46.38.242.228
46.38.247.22
46.38.250.39
46.38.251.64
46.38.253.161
46.38.254.74
46.38.254.223
46.38.254.246
46.38.255.90
46.39.97.94
46.41.134.61
46.41.134.91
46.41.137.28
46.41.142.151
46.41.148.75
46.59.28.110
46.59.188.42
46.101.85.222
46.101.165.197
46.101.178.190
46.101.183.160
46.101.192.23
46.105.54.220
46.105.91.78
46.105.154.14
46.127.96.18
46.128.114.107
46.142.135.77
46.142.147.179
46.142.149.74
46.142.253.90
46.148.21.35
46.148.21.67
46.148.26.44
46.165.221.195
46.165.221.207
46.165.230.5
46.165.252.48
46.165.253.180
46.165.253.196
46.165.253.199
46.165.254.40
46.166.128.173
46.166.139.111
46.166.161.99
46.166.162.57
46.167.244.6
46.167.244.57
46.167.244.113
46.167.244.119
46.167.244.125
46.182.18.245
46.182.21.248
46.182.106.190
46.183.119.58
46.208.152.0
46.212.52.136
46.223.16.57
46.226.104.183
46.226.104.191
46.226.105.168
46.226.106.182
46.226.107.206
46.226.107.215
46.226.111.65
46.227.67.92
46.227.68.55
46.228.199.128
46.229.55.118
46.229.238.172
46.231.93.216
46.232.248.243
46.232.249.138
46.232.250.51
46.232.251.191
46.235.182.153
46.242.128.53
46.244.226.146
46.246.44.53
46.246.126.62
46.249.37.109
46.249.49.177
46.252.5.19
47.53.82.19
47.53.107.191
47.155.56.91
47.181.71.249
47.200.163.231
47.242.107.23
47.242.236.232
47.243.103.140
47.254.174.161
49.12.57.133
49.12.93.240
49.12.115.210
49.12.224.203
49.12.225.94
49.12.230.234
49.12.233.179
49.12.234.223
49.212.166.38
49.245.93.158
50.7.1.76
50.7.1.91
50.7.8.141
50.7.14.36
50.7.115.67
50.7.154.218
50.7.178.34
50.7.179.202
50.31.252.28
50.46.237.184
50.53.115.151
50.64.108.115
50.65.174.148
50.65.180.62
50.72.121.79
50.73.63.162
50.82.179.25
50.116.35.204
50.116.47.139
50.116.51.101
50.197.11.188
50.197.11.189
50.215.11.157
50.220.99.34
50.230.202.249
50.230.231.84
50.236.201.218
50.250.2.171
50.250.14.89
51.15.2.63
51.15.4.202
51.15.8.63
51.15.36.183
51.15.37.100
51.15.39.65
51.15.40.38
51.15.44.157
51.15.44.251
51.15.46.15
51.15.49.143
51.15.50.36
51.15.51.3
51.15.52.16
51.15.54.117
51.15.59.15
51.15.62.130
51.15.65.243
51.15.73.97
51.15.74.130
51.15.75.120
51.15.76.56
51.15.77.244
51.15.78.0
51.15.81.148
51.15.89.218
51.15.91.7
51.15.96.2
51.15.98.240
51.15.113.85
51.15.113.108
51.15.114.49
51.15.120.162
51.15.122.234
51.15.127.227
51.15.135.54
51.15.138.196
51.15.139.196
51.15.142.0
51.15.150.228
51.15.177.148
51.15.178.93
51.15.182.104
51.15.185.201
51.15.188.58
51.15.218.190
51.15.227.109
51.15.232.19
51.15.234.136
51.15.237.146
51.15.242.244
51.15.243.22
51.15.246.170
51.15.249.81
51.15.250.93
51.38.54.48
51.38.65.160
51.38.81.39
51.38.127.41
51.38.145.53
51.38.148.101
51.38.176.84
51.68.45.22
51.68.124.47
51.68.136.44
51.68.143.247
51.68.152.77
51.68.152.89
51.68.153.80
51.68.155.201
51.68.197.220
51.68.204.139
51.68.207.37
51.68.215.27
51.68.231.5
51.75.64.23
51.75.65.102
51.75.68.28
51.75.71.108
51.75.125.241
51.75.129.204
51.75.143.145
51.75.143.146
51.75.143.150
51.75.161.78
51.75.162.55
51.75.170.247
51.75.171.136
51.75.206.12
51.77.39.255
51.77.59.234
51.77.100.58
51.77.109.21
51.77.111.67
51.77.140.69
51.77.202.41
51.77.245.88
51.79.71.20
51.79.156.173
51.79.170.198
51.79.204.46
51.79.221.8
51.81.32.241
51.81.35.71
51.81.48.10
51.81.56.74
51.81.56.91
51.81.56.123
51.81.56.136
51.81.56.195
51.81.56.228
51.81.56.229
51.81.57.7
51.81.87.113
51.81.93.37
51.81.93.39
51.81.93.108
51.81.93.109
51.81.93.145
51.81.93.162
51.81.155.81
51.81.201.207
51.81.203.190
51.81.208.163
51.81.208.164
51.81.208.217
51.81.209.45
51.81.209.115
51.81.209.126
51.81.236.225
51.81.245.149
51.81.254.17
51.81.254.31
51.83.43.83
51.83.128.105
51.83.131.42
51.83.132.69
51.83.132.103
51.83.227.239
51.83.237.59
51.89.45.83
51.89.143.152
51.89.143.153
51.89.143.155
51.89.143.157
51.89.143.158
51.89.143.159
51.89.148.2
51.89.216.141
51.91.58.34
51.91.73.194
51.148.150.203
51.154.39.70
51.158.96.122
51.158.99.6
51.158.122.98
51.158.126.227
51.158.146.12
51.158.146.152
51.158.147.221
51.158.148.128
51.158.148.216
51.158.148.230
51.158.154.112
51.158.164.63
51.158.165.51
51.158.166.73
51.158.166.230
51.158.170.28
51.158.186.140
51.158.187.110
51.158.191.33
51.158.230.172
51.158.231.76
51.158.231.136
51.158.231.208
51.159.34.131
51.159.59.187
51.159.99.157
51.159.144.243
51.159.151.6
51.159.158.157
51.159.161.194
51.159.181.146
51.159.184.219
51.159.186.85
51.159.188.211
51.161.35.113
51.161.202.121
51.174.128.108
51.178.17.192
51.178.81.25
51.178.82.201
51.178.86.137
51.186.203.48
51.195.29.32
51.195.29.33
51.195.29.56
51.195.42.226
51.195.46.98
51.195.103.74
51.195.107.236
51.195.121.102
51.195.166.162
51.195.166.196
51.198.204.164
51.210.61.198
51.210.178.32
51.222.13.51
51.222.53.215
51.222.194.24
51.250.39.79
51.254.45.43
51.254.96.208
51.254.114.203
51.255.39.110
51.255.106.107
51.255.150.177
52.8.68.153
52.47.91.150
52.52.230.13
52.205.15.239
52.214.94.163
54.36.108.162
54.36.120.156
54.36.166.86
54.36.173.175
54.36.174.4
54.36.203.16
54.36.205.38
54.36.237.163
54.37.75.190
54.37.136.174
54.37.137.112
54.37.139.118
54.37.180.95
54.38.33.66
54.38.53.94
54.38.183.101
54.38.215.74
54.38.219.248
54.38.219.249
54.38.219.250
54.38.219.251
54.39.66.61
54.39.73.124
54.39.86.165
54.39.130.197
54.39.234.91
54.93.77.70
54.213.206.148
54.251.87.143
58.9.110.19
58.107.88.237
58.185.69.242
58.185.69.245
59.106.211.35
59.187.250.174
60.241.48.194
61.4.102.51
61.197.78.58
62.12.118.116
62.65.40.250
62.65.106.163
62.67.28.50
62.67.28.110
62.72.82.232
62.78.187.78
62.80.227.49
62.101.228.30
62.102.148.68
62.102.148.69
62.112.10.154
62.113.211.114
62.113.216.173
62.133.45.2
62.141.36.150
62.141.46.187
62.141.48.175
62.141.48.177
62.143.215.70
62.149.2.188
62.165.251.181
62.166.174.143
62.168.3.212
62.171.135.191
62.171.137.145
62.171.137.169
62.171.142.3
62.171.165.116
62.178.105.128
62.182.84.46
62.182.84.241
62.204.41.213
62.210.85.178
62.210.97.21
62.210.99.238
62.210.105.46
62.210.116.61
62.210.123.24
62.210.125.130
62.210.189.40
62.210.205.228
62.210.244.146
62.212.239.172
62.216.54.29
63.141.233.118
63.141.234.35
63.170.122.227
63.225.114.233
63.225.188.169
63.227.116.162
63.250.56.54
63.250.63.173
64.4.175.33
64.5.123.66
64.33.179.214
64.42.176.50
64.44.51.37
64.71.151.2
64.79.152.132
64.83.167.45
64.98.115.209
64.98.225.75
64.98.231.29
64.113.32.29
64.180.53.106
64.223.229.8
64.251.255.9
65.19.73.221
65.19.167.90
65.20.73.136
65.20.77.3
65.21.1.92
65.21.50.48
65.21.52.121
65.21.54.19
65.21.56.56
65.21.57.134
65.21.75.226
65.21.85.98
65.21.91.58
65.21.94.13
65.21.106.169
65.21.122.77
65.21.126.222
65.21.126.239
65.21.145.145
65.21.179.41
65.21.180.151
65.21.235.52
65.21.246.132
65.21.251.26
65.24.59.30
65.24.251.189
65.49.20.10
65.49.20.11
65.49.20.12
65.108.3.114
65.108.7.141
65.108.10.141
65.108.42.103
65.108.46.76
65.108.58.113
65.108.77.19
65.108.82.81
65.108.89.113
65.108.130.145
65.108.136.183
65.108.136.189
65.108.136.190
65.108.195.151
65.108.197.60
65.108.204.166
65.108.210.174
65.108.212.174
65.108.231.17
65.108.247.78
65.108.248.163
65.108.248.251
65.108.253.128
65.109.16.131
65.109.16.187
65.109.28.248
65.109.28.254
65.186.37.27
66.23.203.170
66.23.203.178
66.23.227.135
66.70.190.26
66.70.211.20
66.85.157.106
66.111.2.16
66.111.2.131
66.146.193.33
66.150.66.166
66.150.130.81
66.152.179.11
66.165.241.228
66.175.235.244
66.183.173.29
66.183.173.81
66.187.5.192
66.187.123.203
66.206.0.82
66.206.0.138
66.206.4.26
66.220.242.222
66.229.163.187
67.82.173.160
67.165.9.74
67.183.168.80
67.198.37.16
67.205.139.175
67.219.105.91
67.219.105.117
67.219.136.7
67.219.136.11
67.219.182.195
68.6.151.77
68.12.219.144
68.41.59.10
68.67.32.31
68.67.32.32
68.67.32.33
68.67.32.34
68.71.16.132
68.99.156.187
68.104.31.55
68.134.162.182
68.148.242.19
68.160.134.97
68.183.77.26
68.183.150.185
68.183.163.215
68.183.182.89
68.183.184.174
68.199.159.81
69.4.212.222
69.25.116.223
69.30.239.126
69.40.113.80
69.62.163.75
69.126.50.217
69.144.171.182
69.164.194.10
69.164.205.192
69.164.206.5
69.164.210.142
69.164.211.18
69.164.221.78
69.174.143.74
69.197.128.154
69.197.160.206
69.207.41.240
69.237.207.60
70.32.0.100
70.34.206.22
70.34.244.156
70.34.247.161
70.44.88.31
70.52.10.150
70.53.179.90
70.55.113.58
70.63.170.86
70.89.115.157
70.92.4.215
70.105.250.118
70.120.126.172
70.187.154.218
71.19.144.65
71.19.144.89
71.19.144.106
71.19.144.220
71.19.149.21
71.19.154.84
71.19.155.121
71.19.157.127
71.42.125.218
71.60.169.10
71.76.67.20
71.79.166.226
71.114.106.74
71.126.173.152
71.131.94.125
71.135.200.38
71.178.206.146
71.179.6.26
71.192.152.8
71.207.38.131
71.218.183.209
71.229.166.247
71.230.136.74
72.14.177.164
72.14.179.10
72.23.65.169
72.68.41.151
72.83.64.189
72.89.32.196
72.95.19.36
72.167.47.69
72.182.120.46
72.212.32.122
72.235.37.213
73.41.140.47
73.41.183.110
73.42.194.125
73.55.222.168
73.90.7.174
73.117.132.138
73.118.167.147
73.130.52.203
73.183.183.56
73.203.30.43
74.82.47.194
74.83.80.254
74.91.21.2
74.91.26.170
74.106.232.4
74.116.186.120
74.123.97.10
74.123.98.10
74.123.98.18
74.207.234.100
74.208.33.181
74.208.37.24
74.208.37.237
74.208.136.53
74.208.182.78
74.208.203.175
74.208.212.4
74.208.212.42
74.208.216.193
74.208.239.67
75.10.170.76
75.58.62.109
75.75.102.102
75.87.189.107
75.127.15.73
75.130.226.25
75.164.184.56
75.172.18.168
75.176.45.87
75.184.16.251
75.184.41.141
76.14.118.191
76.14.151.174
76.65.151.47
76.89.223.26
76.95.215.3
76.103.212.175
76.189.140.53
76.210.199.227
76.219.192.193
77.6.167.236
77.7.2.50
77.10.14.73
77.13.53.255
77.13.164.184
77.13.190.223
77.21.71.189
77.22.42.176
77.32.108.46
77.57.20.120
77.58.104.62
77.68.3.133
77.68.9.62
77.68.20.217
77.68.26.238
77.68.29.65
77.68.30.104
77.68.73.218
77.68.75.173
77.68.88.55
77.68.94.106
77.68.102.85
77.70.63.220
77.73.71.110
77.74.96.43
77.81.247.72
77.83.198.149
77.83.198.213
77.91.74.58
77.91.100.7
77.91.102.147
77.97.245.192
77.105.107.21
77.109.152.11
77.123.155.45
77.162.229.73
77.166.80.76
77.171.66.215
77.171.80.188
77.172.70.151
77.174.62.158
77.174.164.37
77.179.144.19
77.181.18.177
77.181.60.245
77.181.154.101
77.191.10.132
77.220.198.179
77.242.64.22
77.246.159.165
77.250.227.202
77.253.39.230
78.22.225.174
78.31.65.42
78.31.67.22
78.43.27.123
78.45.4.183
78.46.39.249
78.46.47.184
78.46.85.216
78.46.98.207
78.46.104.112
78.46.120.54
78.46.123.26
78.46.141.156
78.46.162.123
78.46.177.87
78.46.192.233
78.46.202.212
78.46.209.112
78.47.11.224
78.47.14.99
78.47.18.110
78.47.36.20
78.47.39.90
78.47.43.74
78.47.43.253
78.47.62.116
78.47.117.28
78.47.134.196
78.47.153.136
78.47.169.189
78.47.171.53
78.47.172.152
78.47.221.71
78.47.226.12
78.47.229.130
78.55.138.213
78.61.137.118
78.68.162.163
78.72.211.34
78.82.176.45
78.94.141.202
78.94.213.43
78.94.253.253
78.107.239.253
78.108.108.25
78.128.112.10
78.130.128.106
78.130.248.125
78.132.17.21
78.133.83.175
78.138.98.42
78.141.196.113
78.141.237.54
78.142.140.242
78.150.231.55
78.159.117.165
78.194.37.29
78.194.158.30
78.196.33.136
78.231.131.6
79.20.11.198
79.20.97.34
79.21.93.252
79.25.177.239
79.41.84.34
79.52.232.242
79.77.182.182
79.77.182.183
79.110.62.194
79.110.62.195
79.110.62.244
79.115.185.175
79.116.25.129
79.116.36.255
79.118.20.6
79.124.7.11
79.136.1.46
79.136.43.234
79.140.41.118
79.141.165.172
79.141.174.124
79.141.175.229
79.143.177.192
79.143.177.247
79.143.181.221
79.143.183.69
79.143.186.17
79.158.148.104
79.172.193.65
79.175.97.89
79.192.212.208
79.196.250.163
79.197.248.249
79.198.97.60
79.201.178.152
79.205.228.190
79.205.254.217
79.209.24.42
79.214.251.206
79.219.250.4
79.223.117.198
79.225.81.245
79.230.230.194
79.235.132.138
79.246.108.108
79.249.90.48
79.250.156.15
79.251.241.137
79.254.26.237
79.254.118.139
79.255.151.156
80.13.139.249
80.49.218.31
80.49.245.225
80.64.218.42
80.64.218.61
80.66.135.13
80.66.135.123
80.67.167.81
80.67.167.86
80.67.172.162
80.71.138.195
80.72.43.250
80.78.25.36
80.78.27.121
80.82.78.8
80.82.78.13
80.85.153.149
80.92.204.251
80.109.75.19
80.110.35.15
80.122.209.186
80.131.216.89
80.142.187.122
80.144.169.77
80.147.33.157
80.147.218.187
80.162.238.215
80.211.74.173
80.211.130.241
80.211.240.153
80.217.6.170
80.219.136.216
80.221.44.153
80.235.46.148
80.241.60.207
80.241.213.155
80.241.214.102
80.241.220.57
80.244.243.158
80.253.94.252
80.255.0.180
81.4.109.63
81.4.122.99
81.6.40.22
81.6.43.252
81.6.46.82
81.7.10.193
81.7.14.253
81.7.16.177
81.7.18.7
81.16.19.39
81.16.33.38
81.16.33.41
81.16.33.42
81.17.30.48
81.17.30.214
81.17.60.24
81.30.158.121
81.31.199.112
81.39.237.25
81.40.67.187
81.51.253.192
81.83.37.138
81.83.84.153
81.95.11.117
81.95.52.68
81.109.66.0
81.134.36.33
81.152.88.119
81.157.78.106
81.169.134.23
81.169.141.98
81.169.159.28
81.169.166.81
81.169.173.113
81.169.186.16
81.169.195.229
81.169.222.158
81.169.239.50
81.169.240.47
81.169.240.172
81.169.253.21
81.169.255.125
81.170.128.221
81.182.222.5
81.201.202.126
81.217.189.7
81.221.150.207
81.225.229.60
82.37.194.181
82.39.132.97
82.48.209.242
82.49.75.216
82.54.68.91
82.64.20.171
82.64.55.148
82.64.75.232
82.64.86.234
82.64.107.53
82.64.139.45
82.64.162.213
82.64.163.188
82.64.190.82
82.64.197.25
82.64.223.54
82.64.238.84
82.64.243.112
82.65.32.83
82.65.45.218
82.65.125.114
82.65.148.75
82.65.165.202
82.65.188.99
82.65.243.137
82.66.10.17
82.66.61.19
82.66.81.111
82.66.103.116
82.66.185.227
82.66.192.174
82.68.0.77
82.68.161.238
82.69.47.114
82.73.87.13
82.77.87.19
82.77.238.6
82.94.251.227
82.102.27.195
82.103.140.87
82.116.120.3
82.118.21.168
82.118.23.198
82.118.242.103
82.118.242.147
82.118.242.226
82.128.229.109
82.130.170.204
82.130.171.95
82.149.227.123
82.149.227.124
82.149.227.125
82.149.227.126
82.149.227.236
82.158.100.90
82.160.220.20
82.165.2.144
82.165.20.161
82.165.57.176
82.165.67.222
82.165.70.65
82.165.70.174
82.165.77.33
82.165.107.33
82.165.108.126
82.165.111.170
82.165.113.235
82.165.116.173
82.165.167.46
82.165.168.125
82.165.169.47
82.165.185.89
82.165.206.97
82.165.206.196
82.165.243.187
82.165.244.94
82.168.32.82
82.168.132.167
82.181.230.0
82.196.8.13
82.196.11.10
82.196.126.71
82.197.183.225
82.197.187.221
82.197.199.203
82.197.215.30
82.197.218.212
82.209.54.74
82.213.247.40
82.220.38.150
82.221.128.122
82.221.128.178
82.221.128.191
82.221.128.202
82.221.128.220
82.221.131.5
82.221.131.71
82.221.139.190
82.223.10.86
82.223.14.245
82.223.23.176
82.223.70.114
82.223.104.129
83.0.60.229
83.9.142.245
83.27.195.146
83.35.162.197
83.38.20.136
83.43.228.34
83.44.171.172
83.77.8.179
83.79.15.24
83.82.235.56
83.96.213.63
83.97.20.84
83.97.20.88
83.97.20.127
83.97.20.151
83.97.20.189
83.99.147.75
83.135.152.116
83.135.196.238
83.136.106.136
83.136.106.223
83.136.107.114
83.137.158.2
83.137.158.4
83.137.158.5
83.137.158.6
83.137.158.7
83.137.158.8
83.137.158.9
83.137.158.10
83.137.158.11
83.137.158.12
83.137.158.13
83.137.158.14
83.137.158.15
83.148.32.104
83.170.6.70
83.171.236.7
83.197.193.24
83.209.9.121
83.209.9.233
83.212.72.189
83.223.97.199
83.226.154.148
83.226.248.195
83.229.6.161
83.229.71.97
83.229.73.246
83.230.40.201
83.233.125.188
83.243.68.194
83.250.228.119
83.255.155.80
84.0.119.194
84.16.229.2
84.19.188.216
84.26.120.118
84.42.171.173
84.46.71.251
84.49.151.188
84.54.13.19
84.56.101.115
84.59.211.170
84.61.104.149
84.63.50.9
84.75.28.247
84.118.152.176
84.131.90.39
84.133.69.116
84.134.211.126
84.148.250.40
84.155.46.60
84.155.144.3
84.157.61.61
84.158.27.130
84.158.125.5
84.159.57.70
84.164.119.192
84.165.124.229
84.166.218.216
84.168.126.137
84.169.132.239
84.170.131.219
84.172.112.76
84.172.215.68
84.174.141.204
84.174.237.120
84.182.181.253
84.183.226.250
84.188.98.74
84.191.175.253
84.196.9.26
84.202.47.23
84.211.247.39
84.212.255.36
84.226.204.97
84.234.250.30
84.238.10.142
84.239.46.7
84.239.46.144
84.240.60.234
84.243.66.75
84.248.204.115
84.252.121.40
84.252.122.189
85.0.125.130
85.1.110.205
85.4.8.111
85.10.240.250
85.17.127.129
85.17.140.73
85.25.43.31
85.29.89.127
85.81.6.247
85.89.172.150
85.91.153.163
85.92.108.76
85.93.218.204
85.117.235.222
85.119.82.131
85.119.82.142
85.119.84.11
85.131.16.29
85.143.214.143
85.146.92.119
85.147.65.132
85.166.159.136
85.167.52.112
85.183.60.50
85.183.154.97
85.191.207.22
85.195.208.8
85.195.214.252
85.195.230.249
85.195.232.50
85.195.232.68
85.195.235.248
85.195.238.92
85.195.253.5
85.202.203.247
85.204.74.139
85.204.116.47
85.204.116.105
85.204.116.231
85.204.116.234
85.204.116.239
85.208.97.34
85.208.97.36
85.208.97.42
85.208.144.164
85.212.187.69
85.214.38.105
85.214.39.106
85.214.42.55
85.214.49.28
85.214.55.7
85.214.58.236
85.214.64.22
85.214.80.217
85.214.97.206
85.214.118.71
85.214.128.156
85.214.138.154
85.214.139.182
85.214.147.9
85.214.156.28
85.214.173.197
85.214.174.59
85.214.199.51
85.214.226.156
85.214.227.211
85.214.235.116
85.214.236.165
85.214.246.62
85.214.252.65
85.215.88.244
85.215.91.150
85.215.228.176
85.220.70.114
85.228.41.64
85.228.183.66
85.234.221.111
85.235.66.146
85.235.67.10
85.236.210.118
85.239.33.143
85.239.34.6
85.239.34.40
85.239.34.103
85.239.40.81
85.239.40.94
85.239.55.237
85.241.106.203
85.247.237.89
85.254.143.186
86.1.221.53
86.6.6.44
86.8.233.113
86.14.81.141
86.14.252.247
86.17.181.78
86.59.21.38
86.59.21.163
86.59.115.70
86.59.119.83
86.59.119.88
86.62.157.127
86.86.51.253
86.86.173.62
86.105.212.130
86.115.32.179
86.123.52.188
86.124.232.203
86.127.196.226
86.127.234.130
86.127.236.181
86.140.159.76
86.144.43.87
86.148.202.76
86.149.30.81
86.200.196.165
86.202.72.56
86.202.188.39
86.234.206.33
86.248.89.174
87.14.105.207
87.17.211.252
87.54.90.198
87.62.96.246
87.62.98.28
87.78.236.137
87.79.161.82
87.92.80.68
87.92.149.38
87.92.154.24
87.92.210.252
87.98.143.207
87.98.171.152
87.98.240.65
87.98.243.204
87.100.255.247
87.104.37.130
87.106.126.195
87.106.168.172
87.106.169.77
87.106.192.222
87.106.193.56
87.106.229.54
87.106.229.129
87.106.236.40
87.118.96.154
87.118.110.27
87.118.112.136
87.118.116.12
87.118.116.90
87.118.116.103
87.118.122.30
87.118.122.51
87.120.8.68
87.120.8.91
87.120.37.231
87.120.237.130
87.120.254.105
87.121.52.47
87.121.52.182
87.122.46.144
87.122.119.62
87.123.42.149
87.123.104.161
87.123.122.123
87.128.3.75
87.128.54.218
87.139.33.217
87.142.111.103
87.150.5.48
87.151.169.210
87.152.32.150
87.154.214.219
87.169.220.41
87.171.69.190
87.179.65.214
87.179.206.149
87.196.103.31
87.229.115.23
87.236.146.115
87.236.194.23
87.236.195.198
87.236.195.203
87.236.195.216
87.236.195.253
87.236.197.123
87.236.199.239
87.237.165.31
87.245.103.16
87.245.110.44
87.251.64.152
88.66.69.166
88.74.67.143
88.80.20.86
88.80.184.11
88.86.115.99
88.88.16.73
88.90.177.14
88.99.2.111
88.99.4.50
88.99.31.186
88.99.70.165
88.99.76.10
88.99.104.83
88.99.171.75
88.99.248.158
88.114.24.155
88.130.21.193
88.134.98.123
88.195.223.91
88.198.14.190
88.198.70.137
88.198.71.139
88.198.101.33
88.198.184.162
88.198.207.48
88.198.209.95
88.207.122.63
88.208.56.9
88.208.115.70
88.208.215.64
88.208.215.95
88.208.215.96
88.208.224.82
88.208.225.209
88.208.226.26
88.208.240.188
88.209.77.103
88.214.35.62
89.14.55.80
89.14.173.252
89.25.33.22
89.32.41.127
89.34.18.151
89.34.27.237
89.36.218.127
89.39.104.175
89.39.105.228
89.39.106.151
89.39.149.239
89.40.13.217
89.46.100.71
89.56.233.95
89.58.0.34
89.58.0.89
89.58.3.65
89.58.3.114
89.58.4.228
89.58.4.238
89.58.5.205
89.58.8.11
89.58.12.249
89.58.13.253
89.58.17.212
89.58.17.234
89.58.19.197
89.58.27.5
89.58.27.84
89.58.27.85
89.58.28.37
89.58.30.6
89.58.30.164
89.58.32.236
89.58.33.214
89.58.34.53
89.58.37.132
89.58.37.181
89.58.39.134
89.58.40.94
89.58.41.23
89.58.42.28
89.58.43.44
89.58.45.45
89.74.86.145
89.76.241.8
89.102.210.238
89.133.16.200
89.147.108.35
89.147.108.62
89.147.109.91
89.147.109.123
89.150.131.83
89.150.132.174
89.151.219.197
89.161.26.78
89.163.128.25
89.163.128.26
89.163.128.28
89.163.128.29
89.163.143.8
89.163.164.202
89.163.178.20
89.163.224.65
89.163.224.250
89.163.225.115
89.164.128.156
89.182.40.123
89.185.109.216
89.187.143.31
89.190.24.6
89.191.217.1
89.208.105.235
89.212.26.36
89.212.41.199
89.212.52.216
89.217.116.95
89.221.212.118
89.221.220.126
89.233.108.125
89.234.157.254
89.236.112.100
89.245.195.134
89.247.201.149
89.247.206.216
89.248.168.215
89.249.65.249
90.39.26.48
90.55.74.190
90.65.4.132
90.66.55.207
90.92.72.109
90.110.243.135
90.126.124.185
90.129.255.31
90.146.66.219
90.146.176.221
90.155.5.6
90.178.65.63
90.186.86.146
90.187.138.41
90.187.254.173
90.212.217.94
90.230.21.81
90.231.149.18
90.231.172.196
90.255.244.127
91.1.24.107
91.2.197.215
91.8.30.22
91.11.218.141
91.14.236.65
91.22.189.174
91.35.154.213
91.38.225.46
91.39.93.143
91.39.150.10
91.41.211.119
91.45.199.210
91.47.248.162
91.51.254.57
91.52.97.33
91.55.4.244
91.60.119.30
91.61.179.92
91.64.0.13
91.64.46.15
91.64.180.168
91.66.4.41
91.66.57.5
91.67.204.91
91.92.109.42
91.92.109.43
91.96.25.107
91.119.68.112
91.120.111.180
91.121.103.111
91.121.143.199
91.121.147.65
91.121.160.6
91.121.219.14
91.126.217.153
91.132.144.59
91.132.145.129
91.132.145.245
91.132.147.168
91.134.147.134
91.143.80.230
91.143.81.27
91.143.81.212
91.143.83.100
91.143.85.52
91.143.87.51
91.143.87.136
91.143.88.2
91.143.88.62
91.148.141.117
91.151.93.46
91.155.241.225
91.173.202.195
91.189.204.20
91.190.155.70
91.193.18.143
91.194.84.89
91.199.137.50
91.201.65.29
91.203.5.115
91.203.5.118
91.203.5.141
91.203.5.146
91.203.5.165
91.203.144.194
91.203.145.114
91.203.145.116
91.204.6.136
91.207.60.48
91.208.162.42
91.208.162.145
91.208.162.203
91.208.184.123
91.208.197.112
91.208.206.56
91.208.206.136
91.210.58.149
91.211.89.43
91.211.91.74
91.211.91.81
91.211.91.82
91.211.91.182
91.213.8.89
91.213.8.130
91.213.233.138
91.219.30.55
91.219.237.75
91.219.237.160
91.219.238.120
91.219.238.148
91.219.238.221
91.219.239.92
91.219.245.62
91.220.220.52
91.221.66.21
91.223.3.166
91.223.3.167
91.223.3.211
91.223.82.197
91.229.76.124
91.232.37.241
91.233.116.51
91.243.85.168
91.244.181.85
91.245.255.87
91.250.81.52
91.250.242.3
91.250.242.4
91.250.242.12
92.17.234.218
92.32.77.156
92.32.139.215
92.34.149.18
92.34.220.187
92.35.4.69
92.35.4.73
92.35.24.60
92.38.152.130
92.38.163.83
92.38.184.131
92.60.36.153
92.60.37.105
92.116.157.154
92.117.130.11
92.117.168.19
92.117.218.67
92.118.63.242
92.119.123.168
92.141.40.115
92.176.200.1
92.196.96.8
92.201.132.89
92.204.40.241
92.205.17.93
92.205.62.207
92.205.129.7
92.209.17.175
92.210.13.133
92.220.50.122
92.222.79.186
92.222.103.195
92.222.172.56
92.223.65.241
92.223.90.19
92.223.93.250
92.223.105.174
92.232.216.32
92.242.95.233
92.243.0.63
92.243.0.179
92.243.6.46
92.243.20.101
92.244.31.5
92.246.84.133
92.248.33.77
92.249.197.97
92.252.21.81
92.255.85.114
93.31.13.163
93.31.215.252
93.41.144.27
93.41.149.117
93.42.106.202
93.43.195.2
93.51.14.78
93.55.235.232
93.56.117.22
93.72.79.64
93.90.200.181
93.95.88.13
93.95.100.166
93.95.100.202
93.95.226.86
93.95.226.212
93.95.227.7
93.95.227.106
93.95.227.119
93.95.228.51
93.95.228.74
93.95.228.205
93.95.230.85
93.95.230.102
93.95.230.245
93.95.230.253
93.95.231.110
93.95.231.115
93.95.231.124
93.99.255.254
93.100.35.189
93.104.171.7
93.104.186.213
93.104.209.61
93.115.86.4
93.115.86.6
93.115.91.66
93.115.95.38
93.115.96.15
93.115.97.242
93.115.241.194
93.118.32.51
93.119.15.82
93.123.12.126
93.131.14.103
93.160.17.86
93.170.246.217
93.174.85.191
93.174.89.130
93.174.89.131
93.174.89.132
93.174.93.145
93.177.67.43
93.180.154.94
93.180.157.154
93.181.22.21
93.186.200.169
93.190.143.41
93.198.211.122
93.201.152.243
93.207.75.237
93.208.141.76
93.218.11.230
93.218.78.67
93.218.188.201
93.219.40.197
93.221.137.219
93.227.39.68
93.233.226.5
93.239.68.147
94.16.104.159
94.16.107.36
94.16.109.232
94.16.112.31
94.16.112.158
94.16.113.135
94.16.114.231
94.16.114.254
94.16.116.81
94.16.116.137
94.16.117.97
94.16.118.23
94.16.118.250
94.16.120.204
94.16.121.20
94.16.121.91
94.16.122.61
94.16.122.65
94.16.122.222
94.16.123.1
94.16.123.67
94.16.123.169
94.16.123.171
94.16.143.22
94.19.200.5
94.23.17.58
94.23.29.204
94.23.121.39
94.23.150.210
94.23.172.32
94.23.194.134
94.23.247.42
94.23.248.57
94.23.248.158
94.26.73.162
94.32.66.15
94.46.171.151
94.46.171.221
94.46.171.245
94.75.225.70
94.75.237.68
94.100.6.27
94.100.6.30
94.100.6.71
94.100.6.72
94.103.188.80
94.105.123.34
94.112.64.180
94.124.124.32
94.130.10.251
94.130.15.121
94.130.24.201
94.130.58.99
94.130.129.15
94.130.181.104
94.130.185.68
94.130.189.8
94.130.200.167
94.130.227.162
94.130.239.50
94.130.246.106
94.134.4.15
94.134.41.229
94.134.60.118
94.139.3.153
94.139.8.120
94.140.112.74
94.140.112.158
94.140.112.195
94.140.114.76
94.140.114.108
94.140.114.174
94.140.114.210
94.140.114.213
94.140.114.216
94.140.114.255
94.140.115.0
94.140.115.76
94.140.115.114
94.140.116.167
94.140.120.130
94.142.236.196
94.142.241.194
94.142.244.16
94.154.159.96
94.155.49.47
94.156.128.10
94.156.175.86
94.156.175.120
94.172.84.96
94.195.61.203
94.199.213.135
94.199.214.229
94.199.217.82
94.217.169.245
94.220.85.169
94.226.36.6
94.230.208.147
94.230.208.148
94.238.241.149
94.242.55.95
94.242.59.47
94.242.61.178
94.254.74.134
95.31.137.119
95.33.20.92
95.33.169.117
95.51.200.139
95.85.72.207
95.88.108.183
95.88.176.11
95.89.112.122
95.90.95.17
95.91.170.56
95.110.254.231
95.111.230.178
95.111.243.215
95.111.252.230
95.112.20.98
95.116.247.101
95.118.83.185
95.128.43.164
95.142.161.63
95.143.193.125
95.153.31.8
95.153.31.26
95.153.32.22
95.168.162.122
95.179.247.88
95.211.118.194
95.211.120.83
95.211.136.23
95.211.138.7
95.211.138.51
95.211.147.99
95.211.184.218
95.211.205.138
95.211.208.141
95.211.210.72
95.214.40.14
95.214.52.156
95.214.52.187
95.214.52.189
95.214.52.208
95.214.52.224
95.214.52.234
95.214.52.240
95.214.52.241
95.214.53.20
95.214.53.96
95.214.53.99
95.214.53.210
95.214.53.216
95.214.53.221
95.214.54.56
95.214.54.60
95.214.54.65
95.214.54.70
95.214.54.80
95.214.54.94
95.214.54.97
95.214.54.101
95.214.54.102
95.214.54.108
95.214.54.190
95.214.55.43
95.215.45.138
95.215.45.188
95.215.207.4
95.216.2.172
95.216.3.166
95.216.3.171
95.216.5.245
95.216.9.39
95.216.12.30
95.216.13.55
95.216.19.41
95.216.20.80
95.216.20.120
95.216.22.22
95.216.22.87
95.216.27.105
95.216.33.30
95.216.33.58
95.216.35.84
95.216.64.176
95.216.66.186
95.216.72.20
95.216.100.82
95.216.101.247
95.216.107.148
95.216.115.85
95.216.117.15
95.216.136.46
95.216.140.159
95.216.140.239
95.216.141.19
95.216.146.117
95.216.154.9
95.216.159.94
95.216.168.133
95.216.184.159
95.216.185.93
95.216.198.252
95.216.203.27
95.216.212.222
95.216.213.137
95.217.0.139
95.217.2.206
95.217.5.88
95.217.6.94
95.217.14.17
95.217.14.105
95.217.15.125
95.217.16.212
95.217.30.201
95.217.62.4
95.217.83.237
95.217.106.207
95.217.112.218
95.217.112.243
95.217.112.245
95.217.121.38
95.217.129.223
95.217.135.55
95.217.135.250
95.217.164.81
95.217.180.216
95.217.183.194
95.217.203.133
95.217.223.54
95.217.231.111
95.217.248.169
95.222.114.228
95.223.37.26
95.235.188.113
95.235.232.34
96.22.210.165
96.33.24.192
96.52.236.170
96.65.68.193
96.66.15.152
96.126.105.219
96.224.58.76
96.234.150.200
96.253.78.108
96.255.214.250
97.99.232.229
97.107.139.108
97.113.240.90
97.115.184.0
97.121.188.68
98.2.231.74
98.46.21.126
98.63.230.136
98.115.87.163
98.121.76.83
98.128.172.245
98.128.173.1
98.193.69.56
98.250.174.4
99.23.14.42
99.43.23.111
99.45.175.117
99.95.128.64
99.120.173.245
99.122.201.244
99.149.215.67
99.150.229.21
99.163.122.69
99.199.29.26
99.199.137.173
99.234.69.118
100.1.60.202
100.8.33.13
100.34.142.61
100.40.211.135
101.3.121.242
101.55.125.10
101.58.180.233
101.100.139.201
101.100.141.137
101.174.150.28
101.182.5.231
102.118.63.250
102.130.113.9
102.130.113.29
102.130.113.30
102.130.113.42
102.130.119.48
102.132.130.235
102.219.178.8
103.4.153.21
103.9.76.92
103.9.79.121
103.15.226.28
103.28.52.93
103.29.70.42
103.54.56.114
103.54.59.52
103.77.4.182
103.91.65.61
103.97.125.208
103.97.125.218
103.102.46.57
103.102.161.30
103.109.100.207
103.119.112.78
103.119.112.167
103.124.104.229
103.149.144.13
103.152.178.118
103.158.223.168
103.163.218.11
103.167.34.79
103.196.37.111
103.200.210.66
103.214.5.92
103.214.5.150
103.214.6.30
103.214.6.211
103.214.7.251
103.227.99.72
103.228.53.155
103.234.220.205
103.236.201.88
103.242.118.111
103.251.167.10
103.251.167.20
103.251.167.21
103.253.41.45
103.253.41.98
104.37.193.102
104.53.221.159
104.57.231.26
104.128.48.237
104.131.11.214
104.131.72.61
104.149.129.254
104.149.131.210
104.149.155.226
104.152.209.130
104.152.209.202
104.152.209.217
104.152.211.109
104.152.211.147
104.152.211.227
104.156.225.206
104.167.241.228
104.168.87.42
104.168.205.106
104.178.168.242
104.188.187.36
104.191.57.193
104.192.1.138
104.194.235.104
104.200.17.42
104.200.30.152
104.217.249.58
104.217.250.206
104.217.251.86
104.217.255.218
104.219.236.100
104.219.236.101
104.219.236.119
104.219.250.148
104.225.218.232
104.236.87.90
104.237.135.63
104.238.167.111
104.244.72.4
104.244.72.20
104.244.72.65
104.244.72.91
104.244.72.115
104.244.72.123
104.244.72.132
104.244.72.152
104.244.72.248
104.244.73.43
104.244.73.85
104.244.73.193
104.244.73.205
104.244.73.229
104.244.74.23
104.244.74.28
104.244.74.55
104.244.74.57
104.244.74.97
104.244.74.191
104.244.74.253
104.244.75.33
104.244.75.74
104.244.75.80
104.244.76.13
104.244.76.24
104.244.76.127
104.244.76.170
104.244.76.184
104.244.77.53
104.244.77.73
104.244.77.80
104.244.77.111
104.244.77.208
104.244.78.6
104.244.78.168
104.244.79.25
104.244.79.75
104.244.79.187
104.248.159.104
104.254.90.235
106.185.159.242
107.10.73.163
107.138.131.161
107.138.241.147
107.150.32.250
107.152.32.71
107.152.33.7
107.152.33.102
107.152.44.228
107.152.46.201
107.152.47.120
107.152.217.4
107.155.69.234
107.155.76.66
107.155.81.178
107.170.219.188
107.172.209.24
107.173.89.174
107.173.148.133
107.173.159.48
107.173.164.60
107.173.167.162
107.173.167.241
107.174.138.172
107.174.186.172
107.174.244.102
107.175.28.214
107.175.44.89
107.181.136.80
107.184.176.209
107.189.1.160
107.189.1.174
107.189.1.175
107.189.2.91
107.189.2.111
107.189.2.146
107.189.2.222
107.189.5.68
107.189.6.98
107.189.6.214
107.189.7.88
107.189.7.156
107.189.7.226
107.189.8.12
107.189.8.16
107.189.8.65
107.189.8.136
107.189.8.161
107.189.8.181
107.189.10.63
107.189.10.70
107.189.10.86
107.189.10.143
107.189.10.150
107.189.10.154
107.189.11.68
107.189.11.80
107.189.11.207
107.189.11.228
107.189.12.7
107.189.12.52
107.189.12.79
107.189.12.88
107.189.12.148
107.189.12.154
107.189.12.238
107.189.12.251
107.189.13.91
107.189.13.112
107.189.13.164
107.189.13.251
107.189.13.253
107.189.14.43
107.189.14.106
107.189.14.123
107.189.14.182
107.189.28.121
107.189.28.157
107.189.29.103
107.189.29.207
107.189.30.22
107.189.30.58
107.189.30.69
107.189.30.75
107.189.30.86
107.189.30.230
107.189.31.102
107.189.31.134
107.189.31.181
107.189.31.182
107.189.31.234
107.191.39.8
107.204.177.207
108.18.209.89
108.26.0.70
108.27.68.183
108.28.144.192
108.44.237.26
108.48.87.78
108.53.208.157
108.56.237.71
108.62.103.193
108.62.211.205
108.70.34.3
108.161.133.189
108.161.139.183
108.175.4.33
108.175.7.43
108.175.14.48
108.180.138.45
108.240.182.140
109.24.157.46
109.69.67.17
109.70.100.1
109.70.100.2
109.70.100.3
109.70.100.4
109.70.100.5
109.70.100.6
109.70.100.7
109.70.100.8
109.70.100.9
109.70.100.10
109.70.100.11
109.70.100.12
109.70.100.13
109.70.100.14
109.70.100.15
109.70.100.16
109.70.100.17
109.70.100.18
109.70.100.19
109.70.100.20
109.70.100.21
109.70.100.22
109.70.100.23
109.70.100.24
109.70.100.25
109.70.100.26
109.70.100.27
109.70.100.28
109.70.100.29
109.70.100.30
109.70.100.31
109.70.100.32
109.70.100.33
109.70.100.34
109.70.100.35
109.70.100.36
109.70.100.65
109.70.100.66
109.70.100.67
109.70.100.68
109.70.100.69
109.70.100.70
109.70.100.71
109.70.100.72
109.70.100.73
109.70.100.74
109.70.100.75
109.70.100.76
109.70.100.77
109.70.100.78
109.70.100.79
109.70.100.80
109.70.100.81
109.70.100.82
109.70.100.83
109.70.100.84
109.70.100.85
109.70.100.86
109.70.100.87
109.70.100.88
109.70.100.89
109.70.100.90
109.70.100.91
109.70.100.92
109.70.100.93
109.70.100.94
109.70.117.11
109.86.70.81
109.87.25.148
109.90.84.44
109.92.182.91
109.93.92.153
109.105.109.162
109.107.35.154
109.130.20.208
109.164.34.111
109.169.33.163
109.183.26.233
109.190.177.33
109.200.109.37
109.201.133.100
109.201.142.53
109.202.198.174
109.202.205.68
109.202.206.69
109.207.77.145
109.207.77.201
109.228.40.29
109.228.53.235
109.229.210.6
109.230.224.208
109.236.83.11
109.238.11.6
109.238.11.185
109.241.109.93
109.248.144.68
109.248.147.172
109.250.2.133
109.250.22.146
109.250.38.241
109.250.44.2
109.250.88.225
109.250.96.234
109.251.55.19
110.4.47.139
110.32.181.0
110.147.177.252
110.226.248.68
111.216.95.228
112.213.36.21
112.213.37.232
113.20.28.216
114.23.164.80
114.34.165.141
115.70.167.41
116.12.180.234
116.12.180.237
116.49.56.47
116.88.104.94
116.108.82.173
116.202.55.100
116.202.97.46
116.202.104.202
116.202.169.25
116.202.169.30
116.202.179.148
116.202.233.112
116.202.247.57
116.203.17.238
116.203.50.182
116.203.64.212
116.203.88.24
116.203.93.236
116.203.117.220
116.203.140.74
116.203.152.195
116.203.159.176
116.203.195.42
116.203.211.126
116.240.187.33
117.53.155.113
117.53.155.129
118.27.6.60
118.99.13.124
118.163.74.160
118.241.8.171
119.17.158.221
119.18.21.202
119.18.35.197
119.59.110.153
119.161.100.138
121.44.205.45
121.50.43.135
121.99.242.21
121.173.56.124
121.200.11.168
121.200.26.46
123.30.128.138
123.194.142.123
123.208.202.147
123.253.34.26
123.253.34.220
123.255.62.137
124.50.144.50
124.109.1.207
124.121.123.12
124.148.22.90
124.168.200.69
124.170.102.252
124.171.77.174
124.187.101.155
125.30.23.107
125.212.241.131
126.119.12.116
128.0.64.148
128.0.64.184
128.31.0.34
128.31.0.39
128.31.0.61
128.39.8.29
128.52.137.20
128.52.137.59
128.76.152.2
128.127.66.64
128.199.131.168
128.199.146.186
128.232.18.58
129.13.131.140
129.100.38.88
129.126.111.54
129.146.138.146
129.151.198.4
129.151.246.99
129.154.227.10
129.159.97.125
129.159.199.111
129.226.35.38
130.61.20.52
130.61.48.162
130.61.50.97
130.61.51.183
130.61.57.96
130.61.98.119
130.61.118.32
130.61.125.241
130.61.158.124
130.61.161.159
130.61.174.201
130.61.189.174
130.61.189.237
130.61.233.97
130.89.149.57
130.149.14.31
130.149.80.199
130.162.33.30
130.162.45.87
130.162.54.65
130.162.54.130
130.162.208.178
130.162.211.231
130.162.218.212
130.180.63.150
130.193.10.21
130.193.15.49
130.193.15.186
130.193.15.191
130.225.244.90
130.255.78.232
131.153.152.122
131.153.152.178
131.188.40.188
131.188.40.189
131.203.32.146
131.255.4.48
131.255.4.96
132.145.22.208
132.145.38.212
132.145.57.39
132.145.62.236
132.145.78.174
132.145.79.99
132.145.245.6
132.226.174.143
132.226.207.189
132.226.217.140
132.252.186.185
133.167.74.94
134.19.118.139
134.41.181.47
134.101.175.246
134.102.200.101
134.119.32.208
134.122.14.146
134.122.27.133
134.130.172.229
134.195.89.193
134.195.101.200
134.195.196.69
134.209.85.230
134.209.159.74
134.209.181.145
134.209.242.242
134.215.87.124
134.249.231.207
134.255.219.229
135.23.97.216
135.125.25.135
135.125.25.139
135.125.55.228
135.125.89.25
135.125.147.52
135.125.202.252
135.125.205.25
135.125.235.11
135.125.237.243
135.125.250.251
135.148.52.88
135.148.52.158
135.148.52.231
135.148.52.241
135.148.53.45
135.148.53.55
135.148.53.59
135.148.53.61
135.148.53.62
135.148.54.98
135.148.54.103
135.148.54.106
135.148.100.84
135.148.100.89
135.148.100.90
135.148.100.92
135.148.149.23
135.148.150.99
135.148.150.100
135.148.171.158
135.180.40.138
135.180.214.74
135.181.37.113
135.181.41.38
135.181.67.210
135.181.144.230
135.181.165.179
135.181.199.195
135.181.202.85
135.181.213.167
136.24.227.100
136.35.40.15
136.37.16.220
136.37.102.111
136.38.0.108
136.49.10.32
136.49.32.162
136.55.42.106
136.56.29.253
136.58.85.119
136.175.8.61
136.243.3.60
136.243.3.194
136.243.92.194
136.243.102.134
136.243.149.82
136.243.176.148
136.243.177.133
136.243.229.6
136.244.87.205
136.244.94.240
136.244.109.183
137.74.119.109
137.184.42.39
137.193.65.224
137.220.37.214
137.220.53.106
137.220.63.237
137.220.127.235
138.2.22.17
138.2.176.225
138.3.220.49
138.3.250.105
138.59.18.105
138.59.18.106
138.59.18.110
138.68.9.184
138.68.43.194
138.68.52.146
138.117.148.45
138.197.166.92
138.197.206.178
138.201.19.5
138.201.35.6
138.201.55.77
138.201.92.183
138.201.123.109
138.201.125.229
138.201.132.34
138.201.169.12
138.201.196.156
138.201.196.252
138.201.247.18
138.201.250.33
139.28.36.142
139.28.40.158
139.59.0.6
139.59.38.26
139.59.39.213
139.59.43.28
139.59.58.109
139.59.92.164
139.59.118.185
139.99.46.190
139.99.66.153
139.99.134.168
139.99.172.11
139.99.192.138
139.99.237.205
139.99.238.17
139.99.239.135
139.144.60.215
139.162.10.190
139.162.11.98
139.162.63.125
139.162.66.246
139.162.117.43
139.162.127.100
139.162.128.251
139.162.142.120
139.162.148.235
139.162.166.237
139.162.191.243
139.162.210.252
139.162.232.28
139.162.245.120
139.162.251.70
139.180.153.106
139.180.203.153
140.78.100.14
140.78.100.15
140.78.100.16
140.78.100.17
140.78.100.18
140.78.100.19
140.78.100.20
140.78.100.21
140.78.100.22
140.78.100.23
140.78.100.24
140.78.100.25
140.78.100.26
140.78.100.27
140.78.100.28
140.78.100.29
140.78.100.35
140.78.100.36
140.78.100.37
140.78.100.38
140.78.100.39
140.78.100.40
140.78.100.41
140.78.100.42
140.78.100.43
140.82.16.129
140.82.21.226
140.177.225.134
140.238.14.194
140.238.34.159
140.238.38.77
140.238.157.234
140.238.168.214
140.238.171.198
140.238.197.12
140.238.215.74
140.238.221.129
141.14.220.177
141.20.103.33
141.39.250.245
141.43.203.237
141.94.71.180
141.95.18.207
141.95.18.225
141.95.22.152
141.95.55.133
141.95.146.50
141.98.6.54
141.98.8.102
141.98.9.47
141.98.136.79
141.98.255.148
141.105.67.58
141.126.229.32
141.136.0.3
141.136.0.117
141.136.0.129
141.144.233.178
141.144.249.57
141.147.4.66
141.147.33.116
141.147.62.123
141.148.42.164
141.148.237.212
141.158.39.164
141.193.68.190
141.193.68.208
141.239.152.254
141.255.161.166
142.4.209.31
142.11.201.90
142.44.158.140
142.44.170.136
142.44.203.139
142.44.243.133
142.44.247.102
142.47.104.62
142.54.162.114
142.54.190.250
142.93.169.197
142.93.228.59
142.115.34.15
142.132.151.131
142.132.157.35
142.132.162.38
142.132.186.85
142.132.204.165
142.189.149.208
142.202.48.102
142.202.51.68
142.254.83.170
143.110.156.24
143.178.111.120
143.208.84.100
144.2.122.242
144.21.35.217
144.21.40.42
144.24.17.44
144.24.163.104
144.76.3.174
144.76.3.182
144.76.37.242
144.76.50.37
144.76.75.137
144.76.81.198
144.76.86.5
144.76.104.119
144.76.154.13
144.76.159.218
144.76.162.253
144.76.166.141
144.76.166.199
144.76.168.36
144.76.175.205
144.76.200.80
144.76.201.253
144.76.216.252
144.76.219.195
144.76.223.240
144.91.92.99
144.91.98.119
144.91.106.72
144.91.114.27
144.91.124.140
144.91.125.15
144.91.125.239
144.168.44.18
144.168.44.26
144.172.73.16
144.172.73.34
144.172.73.66
144.172.118.4
144.172.118.5
144.172.118.66
144.172.118.76
144.172.118.120
144.172.118.134
144.202.40.226
144.202.57.230
144.217.4.166
144.217.75.110
144.217.80.80
144.217.86.109
144.217.87.28
144.217.90.187
144.217.95.12
145.40.223.148
145.53.186.90
145.239.1.189
145.239.7.168
145.239.14.206
145.239.41.102
145.239.76.95
145.239.81.58
145.239.158.234
145.249.104.60
145.254.156.151
146.0.32.176
146.0.36.21
146.19.173.113
146.19.173.169
146.19.213.39
146.19.213.76
146.19.213.120
146.19.247.86
146.56.154.169
146.59.3.106
146.59.12.188
146.59.18.159
146.59.34.40
146.59.35.178
146.59.44.45
146.59.44.132
146.59.94.226
146.59.233.33
146.59.234.220
146.70.80.101
146.70.82.90
146.70.82.126
146.70.86.74
146.70.100.244
146.70.124.119
146.70.129.112
146.70.129.122
146.185.248.56
146.185.253.104
146.190.22.168
147.28.97.252
147.135.6.69
147.135.16.147
147.135.16.185
147.135.31.134
147.135.54.178
147.135.64.217
147.135.65.26
147.135.78.157
147.135.112.139
147.135.114.98
147.135.114.245
147.182.140.150
147.210.117.21
147.210.117.55
148.63.180.161
148.251.11.21
148.251.22.104
148.251.41.235
148.251.46.115
148.251.50.22
148.251.51.34
148.251.55.246
148.251.68.10
148.251.79.57
148.251.81.16
148.251.83.53
148.251.85.195
148.251.90.115
148.251.91.87
148.251.123.209
148.251.136.16
148.251.150.177
148.251.182.51
148.251.183.205
148.251.190.229
148.251.191.28
148.251.208.18
148.251.211.211
148.251.236.209
148.251.237.219
149.28.58.137
149.28.100.139
149.28.126.255
149.28.136.195
149.28.183.149
149.28.247.216
149.34.0.192
149.56.22.133
149.56.45.200
149.56.64.146
149.56.94.216
149.56.94.217
149.56.94.218
149.56.94.219
149.56.157.119
149.56.185.56
149.56.233.142
149.57.205.65
149.102.152.94
149.143.98.21
149.154.152.121
149.154.154.155
149.154.157.80
149.154.159.87
149.172.49.204
149.172.62.93
149.172.205.232
149.172.239.44
149.202.4.80
149.202.91.90
149.202.124.131
149.210.164.228
149.248.12.40
150.43.61.235
150.43.248.29
150.136.111.138
150.136.142.129
150.230.20.28
151.15.113.143
151.20.222.216
151.56.176.22
151.80.32.172
151.80.44.177
151.80.47.129
151.80.148.159
151.115.38.229
151.115.42.146
151.115.47.4
151.115.48.102
151.115.60.216
151.177.105.31
152.67.71.206
152.67.73.250
152.67.79.82
152.67.84.62
152.67.109.242
152.67.112.12
152.67.162.63
152.67.205.244
152.67.230.135
152.69.198.49
152.70.50.248
152.70.64.30
152.70.96.159
152.70.140.84
152.70.175.13
152.70.181.165
152.70.197.164
152.86.13.206
152.89.104.58
152.89.105.117
152.89.239.174
152.97.142.220
152.115.46.132
153.92.126.234
153.92.127.160
153.92.127.239
153.120.42.137
153.126.128.94
153.151.188.38
154.35.175.225
154.67.116.172
155.4.110.37
155.98.5.5
155.138.205.193
155.248.194.143
155.248.197.238
155.248.212.228
155.248.213.203
156.146.34.193
157.90.38.9
157.90.92.115
157.90.112.145
157.90.116.184
157.90.118.22
157.90.148.231
157.90.179.103
157.90.183.14
157.90.183.103
157.90.226.175
157.90.246.152
157.131.53.151
157.147.121.38
157.230.112.120
157.245.184.13
158.58.173.78
158.62.185.135
158.69.48.49
158.69.63.54
158.69.123.70
158.69.187.63
158.69.204.36
158.69.205.92
158.69.205.247
158.69.207.216
158.69.217.34
158.69.225.167
158.101.132.181
158.101.146.240
158.101.160.248
158.101.173.50
158.101.203.38
158.140.230.233
158.140.234.203
158.174.112.212
158.174.112.253
158.174.145.139
158.174.147.176
158.247.210.78
158.247.225.136
158.248.86.72
158.255.1.112
158.255.212.178
158.255.215.41
158.255.215.193
159.48.46.246
159.65.50.174
159.65.89.192
159.69.11.74
159.69.12.128
159.69.21.196
159.69.27.103
159.69.91.16
159.69.156.131
159.69.159.207
159.69.207.20
159.69.212.6
159.69.241.126
159.89.106.80
159.100.254.121
159.147.255.37
159.196.69.117
159.196.89.240
159.203.22.51
159.203.27.5
159.203.29.240
159.203.64.167
159.203.66.22
159.223.217.9
159.223.233.125
160.16.122.68
160.20.145.209
160.119.249.24
160.119.249.222
160.119.249.223
160.119.249.240
160.119.253.103
160.119.253.114
160.202.162.186
160.251.82.247
161.35.225.118
161.53.160.104
161.97.67.106
161.97.83.186
161.97.97.185
161.97.111.39
161.97.133.225
161.97.141.119
161.97.166.49
161.97.167.148
161.97.168.25
161.97.184.88
162.19.164.55
162.55.58.248
162.55.91.19
162.55.163.223
162.55.177.164
162.55.190.170
162.55.220.207
162.62.117.91
162.62.231.199
162.156.191.108
162.212.158.82
162.220.62.225
162.226.56.70
162.243.168.143
162.247.72.199
162.247.73.192
162.247.74.7
162.247.74.27
162.247.74.74
162.247.74.200
162.247.74.201
162.247.74.202
162.247.74.204
162.247.74.206
162.247.74.213
162.247.74.216
162.247.74.217
162.248.162.11
162.248.162.62
162.248.163.57
162.248.163.61
162.248.163.62
162.248.163.68
162.248.163.69
162.248.163.70
162.248.163.72
162.248.163.83
162.248.163.84
162.248.163.112
162.248.163.115
162.248.163.118
162.248.163.120
162.248.163.124
162.248.163.134
162.248.163.136
162.248.163.137
162.248.163.138
162.248.163.142
162.250.190.53
162.250.191.15
162.250.191.222
162.251.116.2
162.251.116.10
162.251.116.18
162.251.116.26
162.251.116.34
162.251.116.50
162.251.116.82
162.251.116.106
162.251.117.10
162.251.119.2
162.251.166.210
162.251.237.28
162.255.84.248
163.43.195.136
163.158.133.103
163.172.39.134
163.172.41.228
163.172.45.4
163.172.53.201
163.172.60.25
163.172.68.222
163.172.76.56
163.172.94.119
163.172.94.144
163.172.139.104
163.172.145.229
163.172.151.157
163.172.151.206
163.172.154.162
163.172.157.213
163.172.169.253
163.172.179.31
163.172.182.26
163.172.184.32
163.172.188.113
163.172.211.16
163.172.213.212
164.68.106.94
164.68.107.222
164.68.109.162
164.68.113.149
164.68.113.187
164.68.121.40
164.92.218.139
164.132.75.248
164.132.207.62
164.132.226.30
164.160.129.5
164.215.1.110
165.22.81.79
165.22.191.211
165.73.242.163
165.227.32.113
165.227.34.240
165.227.161.62
165.232.130.0
165.232.148.121
166.70.207.2
167.71.33.11
167.71.141.243
167.86.66.168
167.86.76.130
167.86.85.117
167.86.94.107
167.86.100.59
167.86.110.254
167.86.112.42
167.86.119.184
167.86.122.9
167.86.127.130
167.99.69.215
167.99.181.108
167.99.220.223
167.114.144.76
167.179.99.77
167.179.187.174
167.235.133.213
168.119.118.186
168.119.196.51
168.119.196.52
168.138.150.255
168.235.67.30
168.235.111.34
169.239.128.179
169.255.0.132
170.133.2.74
170.133.2.76
170.231.236.46
170.231.236.74
170.231.236.75
170.231.236.76
170.231.236.77
171.22.109.6
171.25.193.9
171.25.193.20
171.25.193.25
171.25.193.77
171.25.193.78
171.25.193.79
171.25.193.80
171.25.193.234
171.25.193.235
171.25.222.203
172.0.47.78
172.1.227.101
172.72.163.146
172.81.131.168
172.83.220.70
172.88.196.55
172.92.148.221
172.97.177.255
172.98.15.136
172.104.52.14
172.104.79.142
172.104.79.222
172.104.126.109
172.104.148.219
172.104.208.190
172.104.225.120
172.104.226.248
172.105.8.6
172.105.9.205
172.105.26.73
172.105.35.201
172.105.47.96
172.105.53.186
172.105.68.180
172.105.93.50
172.105.109.198
172.105.175.146
172.105.185.111
172.105.199.155
172.105.237.238
172.105.242.117
172.106.9.14
172.106.10.58
172.106.10.106
172.106.10.110
172.106.11.34
172.106.12.246
172.106.16.134
172.106.17.190
172.106.17.226
172.106.18.46
172.106.19.126
172.106.19.130
172.106.112.46
172.106.112.50
172.106.112.250
172.106.112.254
172.106.167.6
172.106.167.22
172.106.167.50
172.106.167.62
172.106.167.90
172.106.200.150
172.107.176.150
172.107.201.134
172.107.202.22
172.107.202.142
172.107.226.22
172.107.238.214
172.107.241.110
172.127.92.239
172.221.117.79
172.241.23.114
172.241.140.26
172.241.140.247
172.241.140.249
172.241.224.145
172.241.227.151
172.241.229.13
172.245.89.106
172.245.90.247
172.245.134.18
172.245.134.171
172.250.69.148
173.48.193.250
173.49.219.136
173.66.161.213
173.66.192.213
173.69.60.10
173.70.63.172
173.71.120.107
173.73.115.238
173.73.135.87
173.77.121.34
173.82.19.134
173.82.68.78
173.82.105.49
173.82.108.202
173.82.188.96
173.187.191.21
173.205.92.66
173.208.163.98
173.208.190.11
173.208.190.12
173.208.190.13
173.208.190.14
173.208.247.170
173.212.200.241
173.212.225.208
173.212.231.228
173.212.236.169
173.212.239.78
173.212.242.110
173.212.254.192
173.230.128.232
173.230.137.91
173.230.153.109
173.237.206.68
173.249.8.113
173.249.26.111
173.249.29.137
173.249.57.253
173.255.140.27
173.255.228.134
173.255.250.219
174.4.231.147
174.52.254.73
174.53.167.73
174.91.91.12
174.92.39.101
174.93.160.209
174.94.89.189
174.110.108.126
174.128.250.163
174.128.250.164
174.128.250.165
174.128.250.166
175.34.246.51
176.9.1.211
176.9.17.112
176.9.23.30
176.9.38.121
176.9.39.196
176.9.40.67
176.9.40.131
176.9.42.58
176.9.50.240
176.9.57.157
176.9.75.110
176.9.84.45
176.9.98.108
176.9.123.122
176.9.157.102
176.9.161.22
176.10.107.180
176.10.119.69
176.31.35.149
176.31.151.45
176.31.211.86
176.31.229.76
176.36.117.185
176.36.150.246
176.58.89.182
176.58.100.98
176.58.106.151
176.58.110.66
176.58.121.159
176.58.121.177
176.78.197.243
176.79.152.237
176.95.148.103
176.97.210.107
176.98.22.123
176.107.176.31
176.111.31.244
176.114.0.175
176.114.200.11
176.121.81.51
176.123.1.67
176.123.1.144
176.123.1.208
176.123.5.4
176.123.7.197
176.123.8.5
176.123.9.169
176.123.10.177
176.126.70.55
176.126.253.190
176.128.1.227
176.129.156.18
176.131.113.129
176.142.80.234
176.194.17.31
176.198.219.190
176.199.7.92
176.223.141.106
178.1.124.190
178.2.30.95
178.6.236.21
178.12.22.243
178.17.170.23
178.17.170.28
178.17.170.77
178.17.170.168
178.17.170.169
178.17.171.16
178.17.171.55
178.17.171.102
178.17.171.109
178.17.171.150
178.17.171.197
178.17.171.202
178.17.173.26
178.17.174.14
178.17.174.68
178.17.174.79
178.17.174.162
178.17.174.164
178.17.174.198
178.17.174.211
178.17.174.232
178.17.174.239
178.18.245.109
178.19.96.125
178.20.55.16
178.26.174.143
178.27.164.133
178.31.18.27
178.31.138.206
178.32.189.88
178.32.220.61
178.32.223.87
178.32.233.135
178.39.63.206
178.41.161.172
178.62.24.212
178.62.202.59
178.62.220.93
178.62.241.217
178.63.3.190
178.63.18.223
178.63.19.126
178.63.25.10
178.63.40.99
178.63.41.58
178.63.41.183
178.63.41.204
178.63.52.50
178.63.68.78
178.63.116.157
178.73.210.118
178.78.212.37
178.78.241.178
178.79.134.196
178.79.161.177
178.79.163.170
178.79.181.126
178.128.38.182
178.128.247.50
178.128.255.196
178.132.0.6
178.132.68.227
178.132.78.148
178.156.41.232
178.162.154.226
178.162.194.210
178.165.27.216
178.170.10.3
178.170.10.39
178.170.37.11
178.174.235.8
178.175.128.178
178.175.135.7
178.175.136.12
178.175.148.132
178.175.148.195
178.175.148.200
178.175.148.205
178.175.148.218
178.175.148.233
178.175.148.247
178.199.50.198
178.200.140.242
178.200.169.85
178.200.180.25
178.209.46.173
178.211.96.25
178.215.228.25
178.238.236.41
178.239.176.73
178.249.211.100
178.254.2.91
178.254.6.130
178.254.7.88
178.254.12.105
178.254.13.227
178.254.18.25
178.254.20.159
178.254.22.21
178.254.31.250
178.254.38.91
178.254.39.150
178.254.40.9
178.254.40.244
178.254.41.111
178.254.44.176
178.254.45.64
178.254.45.69
178.254.45.83
178.254.45.235
178.255.47.92
179.43.128.16
179.43.134.188
179.43.139.212
179.43.139.213
179.43.141.195
179.43.145.233
179.43.145.244
179.43.158.176
179.43.159.194
179.43.159.195
179.43.159.196
179.43.159.197
179.43.159.198
179.43.159.199
179.43.159.200
179.43.159.201
179.43.160.164
179.43.169.20
179.43.182.16
179.43.182.33
179.43.182.217
179.43.182.235
179.43.182.252
179.43.188.206
179.43.190.28
179.48.251.188
179.61.251.187
179.61.251.219
179.108.106.120
180.149.125.138
180.149.125.139
180.150.77.240
180.150.226.99
180.183.117.232
180.183.200.199
180.214.72.165
181.119.30.26
181.166.217.250
181.191.0.203
182.21.27.237
182.55.245.23
183.89.184.61
184.75.221.163
184.97.171.213
184.105.146.50
184.105.146.51
184.105.220.24
184.105.221.248
184.164.24.179
184.183.68.185
185.4.132.135
185.4.132.148
185.4.132.183
185.4.134.104
185.4.135.157
185.7.33.120
185.7.33.146
185.8.63.38
185.10.16.41
185.10.19.174
185.10.68.65
185.10.68.71
185.10.68.195
185.10.68.213
185.10.68.215
185.14.30.57
185.14.97.105
185.14.97.176
185.15.92.64
185.15.92.66
185.16.38.110
185.16.38.111
185.16.38.112
185.16.60.130
185.16.60.194
185.16.60.205
185.17.178.132
185.17.184.101
185.21.100.50
185.21.216.197
185.21.217.32
185.21.217.33
185.22.172.106
185.22.173.180
185.22.174.119
185.25.51.97
185.25.51.138
185.26.127.24
185.26.156.13
185.26.156.186
185.32.222.237
185.34.33.2
185.35.200.250
185.35.202.222
185.36.81.95
185.38.13.37
185.38.43.43
185.38.175.130
185.38.175.131
185.38.175.133
185.41.154.130
185.42.170.203
185.44.81.4
185.44.81.21
185.45.245.113
185.51.76.113
185.51.76.203
185.53.129.109
185.56.80.106
185.56.83.83
185.56.88.136
185.56.171.94
185.61.148.225
185.63.253.130
185.65.134.167
185.65.135.232
185.65.241.80
185.66.91.18
185.66.141.125
185.67.45.76
185.67.45.99
185.67.45.100
185.67.82.114
185.69.54.127
185.70.185.126
185.70.185.146
185.72.86.100
185.72.244.24
185.72.244.37
185.73.211.3
185.73.220.8
185.73.240.205
185.80.222.158
185.80.222.164
185.81.109.2
185.82.126.31
185.82.126.83
185.82.126.100
185.82.126.172
185.82.126.222
185.82.127.7
185.82.127.25
185.82.127.48
185.82.217.49
185.82.219.85
185.82.219.109
185.83.217.21
185.84.81.240
185.86.148.90
185.86.150.58
185.86.150.133
185.86.151.168
185.94.223.112
185.97.32.34
185.99.2.173
185.99.135.82
185.100.85.22
185.100.85.23
185.100.85.24
185.100.85.25
185.100.85.132
185.100.86.74
185.100.86.128
185.100.86.154
185.100.87.41
185.100.87.133
185.100.87.136
185.100.87.139
185.100.87.174
185.100.87.192
185.100.87.202
185.100.87.250
185.100.87.253
185.101.105.148
185.101.105.195
185.101.139.172
185.103.110.14
185.103.110.86
185.103.135.18
185.104.120.10
185.104.120.20
185.104.120.30
185.104.142.231
185.105.3.162
185.107.47.171
185.107.47.215
185.107.70.56
185.107.83.1
185.107.195.109
185.107.195.165
185.109.64.191
185.109.91.126
185.110.184.194
185.112.144.11
185.112.144.18
185.112.144.158
185.112.144.198
185.112.146.73
185.112.146.155
185.112.146.188
185.112.146.205
185.112.147.58
185.112.156.72
185.112.157.135
185.113.128.30
185.117.82.68
185.117.82.71
185.117.118.15
185.117.118.47
185.117.118.142
185.117.215.4
185.117.215.9
185.119.117.140
185.119.117.148
185.119.117.162
185.119.119.63
185.119.119.164
185.120.77.117
185.123.53.75
185.124.240.98
185.124.240.109
185.125.168.28
185.125.168.42
185.125.168.210
185.125.171.8
185.125.171.100
185.125.171.101
185.125.171.120
185.125.171.136
185.125.171.199
185.129.61.1
185.129.61.2
185.129.61.3
185.129.61.4
185.129.61.5
185.129.61.6
185.129.61.7
185.129.61.8
185.129.61.9
185.129.61.10
185.129.61.129
185.129.62.62
185.129.62.63
185.130.44.108
185.130.44.178
185.130.45.48
185.130.45.103
185.130.45.138
185.130.45.206
185.130.46.153
185.130.47.58
185.130.47.82
185.131.60.97
185.132.133.69
185.133.210.200
185.134.28.79
185.138.41.56
185.138.41.57
185.140.248.175
185.140.250.128
185.140.250.133
185.140.250.147
185.140.250.214
185.140.251.119
185.140.251.125
185.141.25.140
185.142.53.93
185.142.239.49
185.142.239.205
185.146.232.119
185.146.232.168
185.146.232.191
185.146.232.199
185.146.232.234
185.147.11.200
185.150.162.147
185.150.162.148
185.151.242.187
185.154.110.142
185.154.154.187
185.155.29.64
185.155.96.161
185.156.175.60
185.162.249.126
185.162.251.94
185.162.251.122
185.162.251.135
185.162.251.249
185.163.45.107
185.163.45.212
185.163.45.247
185.163.45.253
185.163.46.91
185.163.204.43
185.163.204.44
185.165.168.77
185.165.169.138
185.165.171.46
185.165.171.84
185.165.240.126
185.170.112.115
185.170.113.101
185.170.113.186
185.170.113.251
185.170.114.25
185.170.114.125
185.170.114.243
185.170.115.216
185.173.235.70
185.175.56.120
185.175.158.68
185.175.158.198
185.177.126.118
185.177.127.34
185.177.151.33
185.177.151.42
185.177.206.66
185.177.206.67
185.177.206.68
185.177.206.69
185.177.206.70
185.177.206.71
185.177.206.72
185.177.206.73
185.177.206.74
185.181.60.181
185.181.61.23
185.181.62.16
185.181.229.77
185.182.194.36
185.183.98.42
185.183.157.127
185.183.157.214
185.183.158.162
185.183.159.40
185.183.159.107
185.183.194.48
185.183.194.90
185.183.194.94
185.184.192.252
185.185.170.27
185.187.169.249
185.188.250.127
185.189.112.162
185.189.125.22
185.189.157.85
185.191.204.254
185.193.52.180
185.193.126.206
185.193.127.153
185.194.140.201
185.194.141.107
185.194.141.178
185.194.142.73
185.194.142.84
185.194.142.90
185.194.142.194
185.194.142.226
185.194.142.241
185.194.217.160
185.194.239.11
185.194.239.73
185.195.71.2
185.195.71.3
185.195.71.4
185.195.71.5
185.195.71.6
185.195.71.7
185.195.71.8
185.195.71.9
185.195.71.10
185.195.71.11
185.195.71.12
185.195.71.244
185.195.237.116
185.196.2.251
185.197.195.145
185.198.26.149
185.204.1.83
185.204.1.84
185.204.1.108
185.204.109.7
185.206.146.238
185.207.104.18
185.207.104.96
185.207.104.225
185.207.105.124
185.207.105.173
185.207.106.222
185.207.106.241
185.207.107.59
185.207.107.92
185.207.107.130
185.207.107.216
185.207.107.227
185.209.160.62
185.212.110.3
185.212.149.111
185.213.155.165
185.213.175.112
185.213.175.236
185.213.175.248
185.215.185.26
185.216.179.206
185.217.0.85
185.217.0.89
185.217.0.96
185.217.95.25
185.217.126.97
185.218.193.51
185.220.100.240
185.220.100.241
185.220.100.242
185.220.100.243
185.220.100.244
185.220.100.245
185.220.100.246
185.220.100.247
185.220.100.248
185.220.100.249
185.220.100.250
185.220.100.251
185.220.100.252
185.220.100.253
185.220.100.254
185.220.100.255
185.220.101.0
185.220.101.1
185.220.101.2
185.220.101.3
185.220.101.4
185.220.101.5
185.220.101.6
185.220.101.7
185.220.101.8
185.220.101.9
185.220.101.10
185.220.101.11
185.220.101.12
185.220.101.13
185.220.101.14
185.220.101.15
185.220.101.16
185.220.101.17
185.220.101.18
185.220.101.19
185.220.101.20
185.220.101.21
185.220.101.22
185.220.101.23
185.220.101.24
185.220.101.25
185.220.101.26
185.220.101.27
185.220.101.28
185.220.101.29
185.220.101.30
185.220.101.31
185.220.101.32
185.220.101.33
185.220.101.34
185.220.101.35
185.220.101.36
185.220.101.37
185.220.101.38
185.220.101.39
185.220.101.40
185.220.101.41
185.220.101.42
185.220.101.43
185.220.101.44
185.220.101.45
185.220.101.46
185.220.101.47
185.220.101.48
185.220.101.49
185.220.101.50
185.220.101.51
185.220.101.52
185.220.101.53
185.220.101.54
185.220.101.55
185.220.101.56
185.220.101.57
185.220.101.58
185.220.101.59
185.220.101.60
185.220.101.61
185.220.101.62
185.220.101.63
185.220.101.64
185.220.101.65
185.220.101.66
185.220.101.67
185.220.101.68
185.220.101.69
185.220.101.70
185.220.101.71
185.220.101.72
185.220.101.73
185.220.101.74
185.220.101.75
185.220.101.76
185.220.101.77
185.220.101.78
185.220.101.79
185.220.101.80
185.220.101.81
185.220.101.128
185.220.101.129
185.220.101.130
185.220.101.131
185.220.101.132
185.220.101.133
185.220.101.134
185.220.101.135
185.220.101.136
185.220.101.137
185.220.101.138
185.220.101.139
185.220.101.140
185.220.101.141
185.220.101.142
185.220.101.143
185.220.101.144
185.220.101.145
185.220.101.146
185.220.101.147
185.220.101.148
185.220.101.149
185.220.101.150
185.220.101.151
185.220.101.153
185.220.101.154
185.220.101.155
185.220.101.156
185.220.101.157
185.220.101.158
185.220.101.159
185.220.101.161
185.220.101.162
185.220.101.163
185.220.101.164
185.220.101.166
185.220.101.167
185.220.101.168
185.220.101.169
185.220.101.170
185.220.101.171
185.220.101.172
185.220.101.174
185.220.101.175
185.220.101.176
185.220.101.177
185.220.101.178
185.220.101.179
185.220.101.180
185.220.101.181
185.220.101.182
185.220.101.183
185.220.101.184
185.220.101.185
185.220.101.186
185.220.101.187
185.220.101.188
185.220.101.189
185.220.101.190
185.220.101.191
185.220.102.4
185.220.102.6
185.220.102.7
185.220.102.8
185.220.102.240
185.220.102.241
185.220.102.242
185.220.102.243
185.220.102.244
185.220.102.245
185.220.102.246
185.220.102.247
185.220.102.248
185.220.102.249
185.220.102.250
185.220.102.251
185.220.102.252
185.220.102.253
185.220.102.254
185.220.103.4
185.220.103.5
185.220.103.6
185.220.103.7
185.220.103.8
185.220.103.9
185.220.103.111
185.220.103.112
185.220.103.113
185.220.103.114
185.220.103.115
185.220.103.116
185.220.103.117
185.220.103.118
185.220.103.119
185.220.103.120
185.224.83.93
185.225.17.105
185.225.17.159
185.225.68.13
185.225.68.85
185.225.68.98
185.225.68.133
185.225.69.59
185.225.69.90
185.225.69.91
185.225.69.98
185.225.69.154
185.225.139.197
185.225.210.34
185.225.210.87
185.227.68.78
185.227.82.43
185.227.82.63
185.228.136.146
185.228.137.72
185.228.138.234
185.228.138.240
185.228.138.252
185.228.139.102
185.229.90.81
185.229.91.110
185.232.68.32
185.232.71.214
185.232.117.247
185.233.100.23
185.233.104.172
185.233.106.34
185.235.146.29
185.235.218.157
185.236.201.215
185.236.203.203
185.236.228.89
185.236.231.43
185.236.231.142
185.237.13.88
185.237.96.181
185.238.129.9
185.238.129.76
185.239.222.240
185.239.222.241
185.239.222.242
185.239.222.243
185.239.222.244
185.239.222.245
185.239.222.246
185.239.222.247
185.239.222.248
185.239.222.249
185.239.222.250
185.239.222.251
185.239.222.252
185.239.222.253
185.239.222.254
185.239.222.255
185.241.5.229
185.241.208.101
185.241.208.105
185.241.208.163
185.241.208.164
185.241.208.170
185.241.208.172
185.241.208.175
185.241.208.179
185.241.208.183
185.241.208.202
185.241.208.204
185.241.208.206
185.241.208.232
185.242.181.140
185.243.10.170
185.243.216.91
185.243.216.92
185.243.216.93
185.243.218.27
185.243.218.32
185.243.218.41
185.243.218.46
185.243.218.78
185.244.28.187
185.244.30.43
185.244.39.79
185.244.150.8
185.244.192.155
185.244.192.175
185.244.192.184
185.244.194.139
185.244.195.103
185.244.195.157
185.245.60.6
185.245.60.9
185.245.60.10
185.245.60.11
185.245.60.18
185.245.60.22
185.245.60.25
185.245.60.35
185.245.60.36
185.245.60.51
185.246.128.161
185.246.182.197
185.246.188.60
185.246.188.67
185.246.188.74
185.247.226.37
185.247.226.89
185.247.226.98
185.247.226.113
185.248.101.215
185.248.151.238
185.252.234.225
185.254.75.55
185.255.96.189
186.190.208.101
187.20.52.11
187.63.100.24
187.94.253.217
187.131.34.69
187.207.23.72
188.4.141.170
188.24.232.174
188.25.224.2
188.40.41.115
188.40.128.246
188.40.147.177
188.40.159.122
188.40.166.29
188.40.206.5
188.40.220.196
188.40.238.144
188.61.80.105
188.68.32.101
188.68.32.179
188.68.34.231
188.68.35.136
188.68.36.28
188.68.36.68
188.68.36.209
188.68.36.221
188.68.37.236
188.68.38.76
188.68.40.46
188.68.41.191
188.68.42.139
188.68.42.230
188.68.43.192
188.68.43.218
188.68.45.72
188.68.45.180
188.68.46.164
188.68.46.245
188.68.48.216
188.68.49.3
188.68.49.235
188.68.49.254
188.68.50.25
188.68.50.76
188.68.50.121
188.68.51.44
188.68.51.209
188.68.52.231
188.68.53.92
188.68.54.158
188.68.56.27
188.68.56.100
188.68.56.103
188.68.56.175
188.68.56.181
188.68.57.225
188.68.58.105
188.68.58.131
188.68.59.214
188.68.224.83
188.74.69.163
188.79.234.86
188.80.195.48
188.93.233.49
188.93.233.196
188.95.39.230
188.105.50.244
188.112.42.222
188.118.198.244
188.126.83.38
188.126.161.125
188.127.30.114
188.127.69.60
188.127.161.204
188.127.197.42
188.127.235.185
188.138.33.149
188.138.33.233
188.138.75.101
188.141.60.190
188.149.184.93
188.151.213.200
188.154.144.172
188.154.181.88
188.154.244.179
188.165.6.66
188.165.26.13
188.165.26.89
188.165.192.152
188.165.213.156
188.165.236.18
188.166.31.252
188.166.33.15
188.166.34.243
188.166.66.99
188.166.87.136
188.166.103.203
188.166.168.73
188.166.186.162
188.166.210.36
188.174.63.37
188.174.168.161
188.190.109.250
188.210.4.41
188.213.5.82
188.213.31.125
188.214.104.21
188.214.144.94
188.216.252.243
188.225.86.249
188.226.222.19
188.240.210.20
188.241.58.244
188.241.106.145
188.254.194.66
189.60.21.201
189.84.21.44
189.91.231.12
189.147.76.136
189.147.160.155
189.147.163.105
189.147.166.20
189.147.168.129
189.147.179.114
189.147.230.63
189.147.238.242
189.164.166.59
190.2.133.227
190.2.145.7
190.2.150.24
190.2.154.253
190.7.3.34
190.10.8.50
190.10.8.68
190.10.8.166
190.42.210.232
190.45.250.27
190.89.104.134
190.103.176.52
190.103.176.112
190.103.179.76
190.103.179.98
190.113.113.4
190.130.150.71
190.167.100.92
190.211.254.76
190.211.254.182
190.211.254.210
191.101.31.11
191.252.111.55
192.9.166.36
192.9.171.167
192.9.235.157
192.9.236.179
192.9.247.95
192.9.249.147
192.18.128.35
192.24.210.7
192.36.38.33
192.42.113.101
192.42.113.102
192.42.115.101
192.42.115.102
192.42.115.103
192.42.116.13
192.42.116.14
192.42.116.15
192.42.116.16
192.42.116.17
192.42.116.18
192.42.116.19
192.42.116.20
192.42.116.22
192.42.116.23
192.42.116.24
192.42.116.25
192.42.116.26
192.42.116.27
192.42.116.28
192.42.116.202
192.42.116.203
192.42.116.204
192.42.116.205
192.42.116.206
192.42.116.207
192.42.116.208
192.42.116.209
192.42.116.210
192.42.116.211
192.42.116.212
192.42.116.213
192.42.116.214
192.42.116.215
192.42.116.216
192.42.132.106
192.42.253.215
192.44.30.40
192.53.167.169
192.68.11.203
192.81.134.35
192.81.218.189
192.87.28.28
192.87.28.82
192.95.27.143
192.95.52.209
192.99.4.116
192.99.13.48
192.99.32.74
192.99.34.48
192.99.35.83
192.99.35.91
192.99.69.17
192.99.151.170
192.99.152.50
192.111.150.126
192.119.108.114
192.121.44.26
192.121.44.27
192.121.108.236
192.124.250.83
192.145.46.247
192.160.102.164
192.160.102.165
192.160.102.166
192.160.102.168
192.160.102.169
192.160.102.170
192.162.141.53
192.183.198.216
192.184.93.11
192.184.148.41
192.184.162.98
192.184.181.142
192.184.220.216
192.195.80.10
192.210.206.188
192.210.233.239
192.211.48.226
192.222.169.71
192.234.196.169
193.0.213.42
193.1.12.167
193.11.114.43
193.11.114.46
193.11.164.243
193.11.166.196
193.23.244.244
193.25.100.180
193.26.156.86
193.26.159.199
193.29.62.33
193.30.123.23
193.30.123.113
193.31.24.154
193.31.116.206
193.32.126.215
193.32.127.153
193.32.127.154
193.32.127.157
193.32.127.230
193.32.127.231
193.32.127.232
193.32.127.233
193.32.127.236
193.38.255.253
193.43.147.241
193.46.254.45
193.56.240.70
193.56.240.72
193.56.240.73
193.56.240.98
193.56.240.142
193.56.240.157
193.63.58.76
193.70.65.141
193.70.112.165
193.104.220.35
193.104.220.94
193.105.73.80
193.105.134.16
193.105.134.18
193.105.134.150
193.105.134.186
193.105.134.187
193.108.117.103
193.108.118.225
193.108.118.228
193.110.95.34
193.111.26.37
193.111.115.210
193.122.15.219
193.124.176.104
193.135.10.219
193.142.146.187
193.142.146.213
193.148.249.205
193.150.22.27
193.159.78.229
193.160.32.19
193.160.96.55
193.163.86.247
193.178.169.149
193.182.111.182
193.183.98.224
193.187.91.79
193.189.100.194
193.189.100.195
193.189.100.196
193.189.100.197
193.189.100.198
193.189.100.199
193.189.100.200
193.189.100.201
193.189.100.202
193.189.100.203
193.189.100.204
193.189.100.205
193.189.100.206
193.189.100.228
193.190.168.53
193.200.17.56
193.200.17.110
193.200.27.186
193.200.241.189
193.203.202.129
193.214.214.202
193.218.118.90
193.218.118.95
193.218.118.117
193.218.118.130
193.218.118.155
193.218.118.158
193.218.118.160
193.218.118.180
193.218.118.182
193.224.163.43
193.226.78.213
193.233.154.95
193.233.202.71
193.233.203.72
193.233.203.125
193.239.86.133
193.239.86.147
193.239.232.102
194.5.96.70
194.5.249.146
194.9.173.107
194.13.81.26
194.13.83.131
194.15.115.91
194.15.115.92
194.15.115.93
194.15.115.94
194.26.192.186
194.26.192.187
194.32.107.60
194.32.107.171
194.32.107.172
194.32.107.206
194.32.107.220
194.34.132.51
194.36.89.57
194.36.144.87
194.45.76.134
194.50.94.247
194.55.13.49
194.55.13.50
194.59.46.2
194.76.227.150
194.76.227.152
194.87.97.118
194.88.105.13
194.88.105.30
194.88.143.66
194.99.104.35
194.104.148.94
194.108.49.124
194.113.32.13
194.113.58.11
194.116.217.241
194.116.228.224
194.118.235.140
194.126.175.157
194.145.150.15
194.147.115.153
194.156.98.216
194.163.128.236
194.163.147.235
194.163.181.45
194.166.129.66
194.180.174.74
194.180.174.227
194.180.191.93
194.180.191.101
194.182.179.34
194.187.249.116
194.195.115.114
194.195.126.203
194.195.250.69
194.195.253.19
194.230.141.59
194.233.75.85
195.3.221.172
195.15.241.38
195.15.242.29
195.15.242.99
195.15.242.113
195.15.243.70
195.34.103.142
195.37.209.9
195.50.212.15
195.58.49.172
195.80.151.30
195.88.24.216
195.88.57.217
195.88.74.206
195.88.226.183
195.90.201.93
195.90.201.166
195.90.208.20
195.90.208.37
195.90.208.228
195.90.212.96
195.122.181.242
195.122.183.170
195.123.209.7
195.123.212.113
195.123.212.228
195.123.214.162
195.123.228.129
195.123.228.151
195.123.238.164
195.123.245.141
195.123.245.201
195.123.247.209
195.128.100.92
195.133.52.198
195.133.192.61
195.142.218.41
195.144.21.182
195.144.21.219
195.154.105.170
195.154.119.203
195.154.164.111
195.154.200.68
195.154.232.133
195.154.237.147
195.154.240.145
195.154.250.239
195.154.252.88
195.154.253.226
195.154.255.174
195.170.172.125
195.176.3.19
195.176.3.20
195.176.3.23
195.176.3.24
195.177.252.5
195.189.96.247
195.191.81.7
195.201.1.29
195.201.9.37
195.201.23.1
195.201.33.216
195.201.36.55
195.201.63.203
195.201.94.113
195.201.226.88
195.211.143.223
195.213.156.221
195.230.22.31
195.230.23.185
195.230.23.248
195.230.168.83
195.234.152.86
198.12.71.224
198.12.116.70
198.16.70.10
198.24.164.98
198.24.168.226
198.46.166.157
198.46.190.147
198.50.128.237
198.50.175.148
198.50.191.95
198.50.223.16
198.50.238.128
198.54.128.45
198.58.107.53
198.71.60.143
198.74.52.66
198.74.57.57
198.74.58.16
198.74.61.51
198.96.155.3
198.96.155.9
198.98.48.175
198.98.49.224
198.98.51.189
198.98.52.83
198.98.52.155
198.98.54.132
198.98.55.6
198.98.57.55
198.98.57.77
198.98.57.191
198.98.57.207
198.98.58.160
198.98.59.102
198.98.59.120
198.98.59.243
198.98.60.90
198.98.61.76
198.98.61.102
198.98.61.131
198.98.62.56
198.98.62.79
198.98.62.120
198.98.62.150
198.140.141.30
198.140.141.51
198.140.141.52
198.144.183.43
198.144.183.150
198.180.150.9
198.211.103.103
198.244.142.123
198.244.191.62
198.244.207.51
198.244.238.51
198.251.68.144
198.251.89.135
198.255.21.2
199.15.250.210
199.58.81.140
199.58.85.161
199.168.103.138
199.170.132.74
199.170.132.80
199.184.215.11
199.193.115.2
199.195.248.29
199.195.248.80
199.195.248.172
199.195.249.181
199.195.249.203
199.195.249.214
199.195.250.13
199.195.250.23
199.195.251.54
199.195.252.18
199.195.252.201
199.195.253.156
199.195.254.254
199.241.137.182
199.247.8.107
199.249.230.64
199.249.230.65
199.249.230.66
199.249.230.67
199.249.230.68
199.249.230.69
199.249.230.70
199.249.230.71
199.249.230.72
199.249.230.73
199.249.230.74
199.249.230.75
199.249.230.76
199.249.230.77
199.249.230.78
199.249.230.79
199.249.230.80
199.249.230.81
199.249.230.82
199.249.230.83
199.249.230.84
199.249.230.85
199.249.230.86
199.249.230.87
199.249.230.88
199.249.230.89
199.249.230.100
199.249.230.101
199.249.230.102
199.249.230.103
199.249.230.104
199.249.230.105
199.249.230.106
199.249.230.107
199.249.230.108
199.249.230.109
199.249.230.110
199.249.230.111
199.249.230.112
199.249.230.113
199.249.230.114
199.249.230.115
199.249.230.116
199.249.230.117
199.249.230.118
199.249.230.119
199.249.230.120
199.249.230.121
199.249.230.122
199.249.230.123
199.249.230.140
199.249.230.141
199.249.230.142
199.249.230.143
199.249.230.144
199.249.230.145
199.249.230.146
199.249.230.147
199.249.230.148
199.249.230.149
199.249.230.150
199.249.230.151
199.249.230.152
199.249.230.153
199.249.230.154
199.249.230.155
199.249.230.156
199.249.230.157
199.249.230.158
199.249.230.159
199.249.230.160
199.249.230.161
199.249.230.162
199.249.230.163
199.249.230.164
199.249.230.165
199.249.230.166
199.249.230.167
199.249.230.168
199.249.230.169
199.249.230.170
199.249.230.171
199.249.230.172
199.249.230.173
199.249.230.174
199.249.230.175
199.249.230.176
199.249.230.177
199.249.230.178
199.249.230.179
199.249.230.180
199.249.230.181
199.249.230.182
199.249.230.183
199.249.230.184
199.249.230.185
199.249.230.186
199.249.230.187
199.249.230.188
199.249.230.189
199.254.238.44
200.122.181.2
200.122.181.78
200.233.205.24
201.80.78.133
202.59.9.238
202.61.192.12
202.61.193.116
202.61.197.87
202.61.202.100
202.61.203.115
202.61.204.106
202.61.205.33
202.61.224.179
202.61.225.234
202.61.226.150
202.61.236.66
202.61.238.215
202.61.255.170
202.61.255.243
202.65.91.213
202.87.163.71
202.142.138.168
202.157.177.224
202.157.187.167
202.165.228.161
202.165.228.225
202.239.38.249
202.239.192.7
203.7.118.233
203.23.128.208
203.28.246.189
203.51.27.108
203.51.38.33
203.76.225.173
203.118.152.146
203.122.194.115
203.123.112.175
203.153.72.55
203.158.42.130
203.211.120.64
203.221.238.106
204.8.156.142
204.11.50.131
204.13.154.155
204.13.164.118
204.17.56.42
204.44.81.158
204.83.204.143
204.85.191.7
204.85.191.8
204.85.191.9
204.194.29.4
205.185.113.66
205.185.115.33
205.185.115.234
205.185.116.143
205.185.116.236
205.185.117.89
205.185.117.149
205.185.117.232
205.185.119.35
205.185.119.222
205.185.120.206
205.185.123.93
205.185.123.165
205.185.124.164
205.185.124.193
205.185.124.200
205.185.124.202
205.185.126.167
205.201.63.48
206.0.94.53
206.55.74.0
206.55.74.1
206.63.229.144
206.174.119.65
206.189.110.107
206.189.132.95
206.192.255.36
206.212.229.151
206.217.136.47
207.2.121.143
207.154.192.183
207.180.192.66
207.180.198.205
207.180.216.146
207.180.221.220
207.180.230.109
207.180.234.231
207.192.70.250
207.216.25.162
207.229.65.155
207.244.91.94
207.244.238.230
208.38.243.36
208.67.104.158
208.67.104.161
208.67.105.55
208.68.7.129
208.87.135.131
208.92.194.252
208.94.242.26
208.105.141.250
208.113.128.32
209.35.33.41
209.44.114.178
209.50.56.38
209.51.188.48
209.58.145.210
209.58.160.138
209.58.180.90
209.58.180.236
209.59.144.119
209.107.107.26
209.126.103.140
209.141.32.166
209.141.33.170
209.141.34.134
209.141.34.239
209.141.36.65
209.141.37.94
209.141.37.233
209.141.38.195
209.141.41.103
209.141.45.189
209.141.46.203
209.141.47.137
209.141.50.178
209.141.51.30
209.141.51.102
209.141.53.20
209.141.53.165
209.141.53.184
209.141.54.168
209.141.54.195
209.141.54.203
209.141.55.26
209.141.55.70
209.141.57.178
209.141.59.116
209.141.61.36
209.145.63.150
209.171.188.159
209.182.218.195
209.182.232.95
209.209.9.109
209.209.11.152
209.209.11.184
209.222.4.144
209.250.238.18
209.250.242.33
211.194.185.213
212.7.160.190
212.7.217.52
212.8.253.145
212.16.170.158
212.21.66.6
212.21.66.25
212.24.100.138
212.32.240.165
212.38.189.186
212.44.103.59
212.44.107.106
212.47.227.71
212.47.229.2
212.47.233.86
212.47.236.95
212.47.244.38
212.51.134.35
212.51.136.243
212.51.141.2
212.51.143.214
212.51.147.50
212.51.149.26
212.51.153.84
212.51.155.104
212.60.126.143
212.71.238.109
212.73.134.242
212.83.43.93
212.83.43.94
212.83.43.95
212.83.43.96
212.83.61.218
212.83.167.220
212.85.65.159
212.85.84.17
212.89.225.242
212.111.40.177
212.112.156.88
212.129.4.84
212.129.32.142
212.129.62.232
212.146.101.18
212.147.124.159
212.159.69.155
212.159.112.196
212.159.177.198
212.162.9.158
212.186.71.38
212.224.71.187
212.227.73.216
212.227.73.217
212.227.76.37
212.227.76.91
212.227.115.239
212.227.142.193
212.227.148.228
212.227.148.248
212.227.149.79
212.227.164.108
212.227.165.251
212.227.182.25
212.227.190.70
212.227.206.135
212.227.210.118
212.227.211.201
212.227.214.150
213.32.16.181
213.32.104.213
213.49.172.105
213.54.28.48
213.54.83.134
213.54.163.78
213.54.199.63
213.65.114.38
213.80.102.27
213.95.149.22
213.109.192.99
213.113.4.171
213.128.141.195
213.135.244.242
213.136.81.89
213.138.102.209
213.141.71.102
213.144.142.24
213.144.142.28
213.149.82.60
213.152.168.27
213.156.137.68
213.156.137.173
213.157.244.223
213.163.70.234
213.164.204.18
213.164.204.38
213.164.204.89
213.164.204.90
213.164.204.94
213.164.204.116
213.164.204.146
213.164.204.152
213.164.204.160
213.164.204.165
213.164.204.171
213.164.204.177
213.164.205.167
213.164.205.168
213.164.205.169
213.164.206.111
213.164.206.123
213.164.206.124
213.164.206.145
213.167.242.183
213.169.148.151
213.171.209.20
213.171.209.200
213.171.212.184
213.171.214.222
213.180.50.123
213.183.48.84
213.183.56.140
213.183.63.36
213.188.119.201
213.188.235.229
213.196.191.96
213.202.223.95
213.202.223.98
213.206.184.75
213.206.184.79
213.211.43.139
213.226.71.164
213.226.119.194
213.227.133.129
213.232.235.83
213.238.182.31
213.238.182.114
213.239.197.35
213.239.213.190
213.239.213.220
213.239.215.221
213.239.217.68
213.252.140.118
213.252.245.153
213.252.245.202
216.10.247.146
216.36.0.99
216.71.206.21
216.73.159.101
216.73.159.106
216.73.159.110
216.98.209.9
216.186.250.53
216.197.74.236
216.197.76.237
216.197.207.48
216.210.69.82
216.210.83.180
216.221.110.202
216.239.90.19
216.250.119.225
217.12.203.242
217.12.221.75
217.12.221.110
217.12.221.131
217.23.8.2
217.23.15.46
217.24.20.31
217.24.239.109
217.61.218.70
217.70.190.250
217.76.159.216
217.78.28.37
217.79.178.53
217.79.179.177
217.79.181.90
217.79.252.202
217.85.4.154
217.85.169.237
217.92.175.88
217.103.30.38
217.112.131.24
217.112.131.98
217.115.127.34
217.133.59.137
217.136.42.50
217.138.199.102
217.146.2.41
217.155.3.245
217.155.40.118
217.160.9.229
217.160.13.173
217.160.49.126
217.160.50.216
217.160.56.88
217.160.58.151
217.160.59.94
217.160.191.62
217.160.192.232
217.160.214.175
217.160.240.202
217.160.242.229
217.160.249.77
217.160.251.63
217.160.255.113
217.170.204.13
217.172.180.4
217.182.75.0
217.182.196.65
217.182.196.67
217.182.196.68
217.182.196.70
217.182.196.71
217.182.198.80
217.182.198.95
217.197.86.173
217.199.199.250
217.210.64.254
217.237.78.201
218.102.182.212
219.100.161.101
220.71.7.106
220.120.114.121
220.233.73.236
220.245.162.97
221.113.50.91
222.252.56.232
223.132.164.34